LSD/Projeto6/Parte1/simulation/qsim/ShiftRegister_Demo.msim.vcd
$comment
	File created using the following command:
		vcd file ShiftRegister_Demo.msim.vcd -direction
$end
$date
	Fri May 07 11:49:52 2021
$end
$version
	ModelSim Version 10.5b
$end
$timescale
	1ps
$end

$scope module shiftregister4_vhd_vec_tst $end
$var wire 1 ! clk $end
$var wire 1 " dataOut [3] $end
$var wire 1 # dataOut [2] $end
$var wire 1 $ dataOut [1] $end
$var wire 1 % dataOut [0] $end
$var wire 1 & sin $end

$scope module i1 $end
$var wire 1 ' gnd $end
$var wire 1 ( vcc $end
$var wire 1 ) unknown $end
$var wire 1 * devoe $end
$var wire 1 + devclrn $end
$var wire 1 , devpor $end
$var wire 1 - ww_devoe $end
$var wire 1 . ww_devclrn $end
$var wire 1 / ww_devpor $end
$var wire 1 0 ww_clk $end
$var wire 1 1 ww_sin $end
$var wire 1 2 ww_dataOut [3] $end
$var wire 1 3 ww_dataOut [2] $end
$var wire 1 4 ww_dataOut [1] $end
$var wire 1 5 ww_dataOut [0] $end
$var wire 1 6 \dataOut[0]~output_o\ $end
$var wire 1 7 \dataOut[1]~output_o\ $end
$var wire 1 8 \dataOut[2]~output_o\ $end
$var wire 1 9 \dataOut[3]~output_o\ $end
$var wire 1 : \clk~input_o\ $end
$var wire 1 ; \sin~input_o\ $end
$var wire 1 < s_shif [3] $end
$var wire 1 = s_shif [2] $end
$var wire 1 > s_shif [1] $end
$var wire 1 ? s_shif [0] $end
$upscope $end
$upscope $end
$enddefinitions $end
#0
$dumpvars
0!
0&
0'
1(
x)
1*
1+
1,
1-
1.
1/
00
01
06
07
08
09
0:
0;
02
03
04
05
0<
0=
0>
0?
0"
0#
0$
0%
$end
#20000
1!
10
1:
#25000
1&
11
1;
#40000
0!
00
0:
#50000
0&
01
0;
#60000
1!
10
1:
#75000
1&
11
1;
#80000
0!
00
0:
#100000
1!
0&
10
01
0;
1:
1?
16
15
1%
#120000
0!
00
0:
#125000
1&
11
1;
#140000
1!
10
1:
1>
17
14
1$
#150000
0&
01
0;
#160000
0!
00
0:
#175000
1&
11
1;
#180000
1!
10
1:
1=
18
13
1#
#200000
0!
0&
00
01
0;
0:
#220000
1!
10
1:
0?
1<
19
06
12
05
0%
1"
#225000
1&
11
1;
#240000
0!
00
0:
#250000
0&
01
0;
#260000
1!
10
1:
0>
07
04
0$
#275000
1&
11
1;
#280000
0!
00
0:
#300000
1!
0&
10
01
0;
1:
1?
0=
08
16
03
15
1%
0#
#320000
0!
00
0:
#325000
1&
11
1;
#340000
1!
10
1:
1>
0<
09
17
02
14
1$
0"
#350000
0&
01
0;
#360000
0!
00
0:
#375000
1&
11
1;
#380000
1!
10
1:
1=
18
13
1#
#400000
0!
0&
00
01
0;
0:
#420000
1!
10
1:
0?
1<
19
06
12
05
0%
1"
#425000
1&
11
1;
#440000
0!
00
0:
#450000
0&
01
0;
#460000
1!
10
1:
0>
07
04
0$
#475000
1&
11
1;
#480000
0!
00
0:
#500000
1!
0&
10
01
0;
1:
1?
0=
08
16
03
15
1%
0#
#520000
0!
00
0:
#525000
1&
11
1;
#540000
1!
10
1:
1>
0<
09
17
02
14
1$
0"
#550000
0&
01
0;
#560000
0!
00
0:
#575000
1&
11
1;
#580000
1!
10
1:
1=
18
13
1#
#600000
0!
0&
00
01
0;
0:
#620000
1!
10
1:
0?
1<
19
06
12
05
0%
1"
#625000
1&
11
1;
#640000
0!
00
0:
#650000
0&
01
0;
#660000
1!
10
1:
0>
07
04
0$
#675000
1&
11
1;
#680000
0!
00
0:
#700000
1!
0&
10
01
0;
1:
1?
0=
08
16
03
15
1%
0#
#720000
0!
00
0:
#725000
1&
11
1;
#740000
1!
10
1:
1>
0<
09
17
02
14
1$
0"
#750000
0&
01
0;
#760000
0!
00
0:
#775000
1&
11
1;
#780000
1!
10
1:
1=
18
13
1#
#800000
0!
0&
00
01
0;
0:
#820000
1!
10
1:
0?
1<
19
06
12
05
0%
1"
#825000
1&
11
1;
#840000
0!
00
0:
#850000
0&
01
0;
#860000
1!
10
1:
0>
07
04
0$
#875000
1&
11
1;
#880000
0!
00
0:
#900000
1!
0&
10
01
0;
1:
1?
0=
08
16
03
15
1%
0#
#920000
0!
00
0:
#925000
1&
11
1;
#940000
1!
10
1:
1>
0<
09
17
02
14
1$
0"
#950000
0&
01
0;
#960000
0!
00
0:
#975000
1&
11
1;
#980000
1!
10
1:
1=
18
13
1#
