LSD/Projeto3/Parte0/simulation/qsim/prototico.msim.vcd
$comment
	File created using the following command:
		vcd file prototico.msim.vcd -direction
$end
$date
	Tue Jun 29 11:25:59 2021
$end
$version
	ModelSim Version 10.5b
$end
$timescale
	1ps
$end

$scope module conversor_vhd_vec_tst $end
$var wire 1 ! a [3] $end
$var wire 1 " a [2] $end
$var wire 1 # a [1] $end
$var wire 1 $ a [0] $end
$var wire 1 % b [3] $end
$var wire 1 & b [2] $end
$var wire 1 ' b [1] $end
$var wire 1 ( b [0] $end
$var wire 1 ) Put [3] $end
$var wire 1 * Put [2] $end
$var wire 1 + Put [1] $end
$var wire 1 , Put [0] $end
$var wire 1 - st [3] $end
$var wire 1 . st [2] $end
$var wire 1 / st [1] $end
$var wire 1 0 st [0] $end

$scope module i1 $end
$var wire 1 1 gnd $end
$var wire 1 2 vcc $end
$var wire 1 3 unknown $end
$var wire 1 4 devoe $end
$var wire 1 5 devclrn $end
$var wire 1 6 devpor $end
$var wire 1 7 ww_devoe $end
$var wire 1 8 ww_devclrn $end
$var wire 1 9 ww_devpor $end
$var wire 1 : ww_a [3] $end
$var wire 1 ; ww_a [2] $end
$var wire 1 < ww_a [1] $end
$var wire 1 = ww_a [0] $end
$var wire 1 > ww_b [3] $end
$var wire 1 ? ww_b [2] $end
$var wire 1 @ ww_b [1] $end
$var wire 1 A ww_b [0] $end
$var wire 1 B ww_st [3] $end
$var wire 1 C ww_st [2] $end
$var wire 1 D ww_st [1] $end
$var wire 1 E ww_st [0] $end
$var wire 1 F ww_Put [3] $end
$var wire 1 G ww_Put [2] $end
$var wire 1 H ww_Put [1] $end
$var wire 1 I ww_Put [0] $end
$var wire 1 J \st[0]~output_o\ $end
$var wire 1 K \st[1]~output_o\ $end
$var wire 1 L \st[2]~output_o\ $end
$var wire 1 M \st[3]~output_o\ $end
$var wire 1 N \Put[0]~output_o\ $end
$var wire 1 O \Put[1]~output_o\ $end
$var wire 1 P \Put[2]~output_o\ $end
$var wire 1 Q \Put[3]~output_o\ $end
$var wire 1 R \b[0]~input_o\ $end
$var wire 1 S \a[0]~input_o\ $end
$var wire 1 T \Add0~0_combout\ $end
$var wire 1 U \b[1]~input_o\ $end
$var wire 1 V \a[1]~input_o\ $end
$var wire 1 W \Add0~1\ $end
$var wire 1 X \Add0~2_combout\ $end
$var wire 1 Y \b[2]~input_o\ $end
$var wire 1 Z \a[2]~input_o\ $end
$var wire 1 [ \Add0~3\ $end
$var wire 1 \ \Add0~4_combout\ $end
$var wire 1 ] \b[3]~input_o\ $end
$var wire 1 ^ \a[3]~input_o\ $end
$var wire 1 _ \Add0~5\ $end
$var wire 1 ` \Add0~6_combout\ $end
$upscope $end
$upscope $end
$enddefinitions $end
#0
$dumpvars
01
12
x3
14
15
16
17
18
19
0J
1K
1L
1M
0N
1O
1P
1Q
1R
1S
0T
1U
1V
1W
1X
1Y
1Z
0[
1\
1]
1^
1_
1`
1!
1"
1#
1$
1%
1&
1'
1(
1:
1;
1<
1=
1>
1?
1@
1A
1B
1C
1D
0E
1F
1G
1H
0I
1)
1*
1+
0,
1-
1.
1/
00
$end
#160000
0%
0&
0'
0(
0A
0@
0?
0>
0]
0Y
0U
0R
1T
0W
0X
0\
0`
1X
1[
1\
0_
0M
0Q
0L
0P
0K
0O
1J
1N
1`
0B
0F
0C
0G
0D
0H
1E
1I
1K
1O
10
0/
0.
0-
1,
0+
0*
0)
1D
1H
1L
1P
1/
1+
1C
1G
1M
1Q
1.
1*
1B
1F
1-
1)
#170000
0!
0"
0#
0$
0=
0<
0;
0:
0^
0Z
0V
0S
0T
0X
0\
0`
0M
0Q
0L
0P
0K
0O
0J
0N
0B
0F
0C
0G
0D
0H
0E
0I
00
0/
0.
0-
0,
0+
0*
0)
#220000
1!
1"
1#
1<
1;
1:
1^
1Z
1V
1X
1\
1`
1M
1Q
1L
1P
1K
1O
1B
1F
1C
1G
1D
1H
1/
1.
1-
1+
1*
1)
#230000
1&
1'
1(
1A
1@
1?
1Y
1U
1R
1T
0X
0[
0\
1_
0`
1\
0L
0P
0K
0O
1J
1N
0C
0G
0D
0H
1E
1I
1L
1P
0M
0Q
10
0/
0.
1,
0+
0*
1C
1G
0B
0F
1.
0-
1*
0)
#320000
0&
0'
0(
0!
0"
0#
0A
0@
0?
0<
0;
0:
0^
0Z
0V
0Y
0U
0R
0T
1[
0_
1`
0`
0\
1M
1Q
0J
0N
1B
1F
0E
0I
0L
0P
0M
0Q
00
1-
0,
1)
0C
0G
0B
0F
0.
0-
0*
0)
#360000
1&
1'
1(
1"
1#
1A
1@
1?
1<
1;
1Z
1V
1Y
1U
1R
1T
0[
1_
1`
1\
1J
1N
1E
1I
1L
1P
1M
1Q
10
1,
1C
1G
1B
1F
1.
1-
1*
1)
#420000
0"
0#
0<
0;
0Z
0V
1X
1[
0\
1\
0_
0`
0L
0P
1K
1O
0C
0G
1D
1H
1L
1P
1/
0.
1+
0*
1C
1G
0M
0Q
1.
1*
0B
0F
0-
0)
#430000
0&
0'
0(
0A
0@
0?
0Y
0U
0R
0T
0X
0\
0L
0P
0K
0O
0J
0N
0C
0G
0D
0H
0E
0I
00
0/
0.
0,
0+
0*
#470000
1"
1#
1<
1;
1Z
1V
1X
1\
1L
1P
1K
1O
1C
1G
1D
1H
1/
1.
1+
1*
#500000
1&
1'
1@
1?
1Y
1U
0X
0[
0\
1_
1`
1\
0L
0P
0K
0O
0C
0G
0D
0H
1L
1P
1M
1Q
0/
0.
0+
0*
1C
1G
1B
1F
1.
1-
1*
1)
#590000
0&
0'
0@
0?
0Y
0U
1X
1[
0\
1\
0_
0`
0L
0P
1K
1O
0C
0G
1D
1H
1L
1P
1/
0.
1+
0*
1C
1G
0M
0Q
1.
1*
0B
0F
0-
0)
#620000
0"
0#
0<
0;
0Z
0V
0X
0\
0L
0P
0K
0O
0C
0G
0D
0H
0/
0.
0+
0*
#670000
1"
1!
1;
1:
1^
1Z
1\
1`
1M
1Q
1L
1P
1B
1F
1C
1G
1.
1-
1*
1)
#680000
1&
1'
1%
1@
1?
1>
1]
1Y
1U
1X
0\
1_
0`
1`
0M
0Q
0L
0P
1K
1O
0B
0F
0C
0G
1D
1H
1M
1Q
1/
0.
0-
1+
0*
0)
1B
1F
1-
1)
#810000
0&
0'
0%
0@
0?
0>
0]
0Y
0U
0X
1\
0_
0`
1`
0M
0Q
1L
1P
0K
0O
0B
0F
1C
1G
0D
0H
1M
1Q
0/
1.
0-
0+
1*
0)
1B
1F
1-
1)
#820000
0"
0!
0;
0:
0^
0Z
0\
0`
0M
0Q
0L
0P
0B
0F
0C
0G
0.
0-
0*
0)
