LSD/Projeto9/Parte1/simulation/qsim/SeqDetector.msim.vcd
$comment
	File created using the following command:
		vcd file SeqDetector.msim.vcd -direction
$end
$date
	Thu May 20 18:27:22 2021
$end
$version
	ModelSim Version 10.5b
$end
$timescale
	1ps
$end

$scope module seqdetfsm_vhd_vec_tst $end
$var wire 1 ! clk $end
$var wire 1 " reset $end
$var wire 1 # Xin $end
$var wire 1 $ Yout $end
$var wire 1 % Zout [3] $end
$var wire 1 & Zout [2] $end
$var wire 1 ' Zout [1] $end
$var wire 1 ( Zout [0] $end

$scope module i1 $end
$var wire 1 ) gnd $end
$var wire 1 * vcc $end
$var wire 1 + unknown $end
$var wire 1 , devoe $end
$var wire 1 - devclrn $end
$var wire 1 . devpor $end
$var wire 1 / ww_devoe $end
$var wire 1 0 ww_devclrn $end
$var wire 1 1 ww_devpor $end
$var wire 1 2 ww_clk $end
$var wire 1 3 ww_reset $end
$var wire 1 4 ww_Xin $end
$var wire 1 5 ww_Zout [3] $end
$var wire 1 6 ww_Zout [2] $end
$var wire 1 7 ww_Zout [1] $end
$var wire 1 8 ww_Zout [0] $end
$var wire 1 9 ww_Yout $end
$var wire 1 : \Zout[0]~output_o\ $end
$var wire 1 ; \Zout[1]~output_o\ $end
$var wire 1 < \Zout[2]~output_o\ $end
$var wire 1 = \Zout[3]~output_o\ $end
$var wire 1 > \Yout~output_o\ $end
$var wire 1 ? \clk~input_o\ $end
$var wire 1 @ \reset~input_o\ $end
$var wire 1 A \Xin~input_o\ $end
$var wire 1 B \pstaty~7_combout\ $end
$var wire 1 C \pstaty.S1~q\ $end
$var wire 1 D \pstaty~8_combout\ $end
$var wire 1 E \pstaty.S10~q\ $end
$var wire 1 F \pstaty~6_combout\ $end
$var wire 1 G \pstaty.S0~q\ $end
$var wire 1 H \pstaty~9_combout\ $end
$var wire 1 I \pstaty.S100~q\ $end
$var wire 1 J \Yout~1_combout\ $end
$var wire 1 K \ALT_INV_pstaty.S0~q\ $end
$upscope $end
$upscope $end
$enddefinitions $end
#0
$dumpvars
0!
1"
1#
0$
0)
1*
x+
1,
1-
1.
1/
10
11
02
13
14
09
1:
0;
0<
0=
0>
0?
1@
1A
0B
0C
0D
0E
0F
0G
0H
0I
0J
1K
05
06
07
18
0%
0&
0'
1(
$end
#20000
1!
12
1?
#40000
0!
02
0?
#50000
0"
03
0@
1B
1F
#60000
1!
12
1?
1C
1G
0K
1;
0:
17
08
1'
0(
#80000
0!
02
0?
#90000
0#
04
0A
0B
1D
#100000
1!
12
1?
0C
1E
1H
0D
1<
0;
16
07
0'
1&
#120000
0!
02
0?
#140000
1!
12
1?
0E
1I
0F
0H
1=
0<
15
06
0&
1%
#160000
0!
1#
02
14
1A
0?
1B
1F
1J
1>
19
1$
#180000
1!
12
1?
1C
0I
0J
0=
1;
05
17
0>
1'
0%
09
0$
#200000
0!
02
0?
#210000
0#
04
0A
0B
1D
#220000
1!
12
1?
0C
1E
1H
0D
1<
0;
16
07
0'
1&
#240000
0!
02
0?
#260000
1!
12
1?
0E
1I
0F
0H
1=
0<
15
06
0&
1%
#280000
0!
02
0?
#300000
1!
1#
12
14
1A
1?
0G
0I
1B
1F
1J
1K
0J
1>
0=
1:
19
05
0>
18
1$
0%
09
1(
0$
#320000
0!
02
0?
#340000
1!
12
1?
1C
1G
0K
1;
0:
17
08
1'
0(
#360000
0!
02
0?
#380000
1!
12
1?
#400000
0!
02
0?
#420000
1!
12
1?
#440000
0!
0#
02
04
0A
0?
0B
1D
#460000
1!
12
1?
0C
1E
1H
0D
1<
0;
16
07
0'
1&
#480000
0!
02
0?
#500000
1!
12
1?
0E
1I
0F
0H
1=
0<
15
06
0&
1%
#520000
0!
02
0?
#540000
1!
1#
12
14
1A
1?
0G
0I
1B
1F
1J
1K
0J
1>
0=
1:
19
05
0>
18
1$
0%
09
1(
0$
#560000
0!
02
0?
#580000
1!
12
1?
1C
1G
0K
1;
0:
17
08
1'
0(
#600000
0!
02
0?
#610000
0#
04
0A
0B
1D
#620000
1!
12
1?
0C
1E
1H
0D
1<
0;
16
07
0'
1&
#640000
0!
02
0?
#660000
1!
12
1?
0E
1I
0F
0H
1=
0<
15
06
0&
1%
#680000
0!
02
0?
#700000
1!
1#
12
14
1A
1?
0G
0I
1B
1F
1J
1K
0J
1>
0=
1:
19
05
0>
18
1$
0%
09
1(
0$
#720000
0!
02
0?
#740000
1!
12
1?
1C
1G
0K
1;
0:
17
08
1'
0(
#760000
0!
02
0?
#780000
1!
12
1?
#800000
0!
02
0?
#810000
0#
04
0A
0B
1D
#820000
1!
12
1?
0C
1E
1H
0D
1<
0;
16
07
0'
1&
#840000
0!
02
0?
#860000
1!
12
1?
0E
1I
0F
0H
1=
0<
15
06
0&
1%
#880000
0!
02
0?
#900000
1!
12
1?
0G
0I
1K
0=
1:
05
18
0%
1(
#920000
0!
02
0?
#940000
1!
12
1?
#960000
0!
02
0?
#980000
1!
12
1?
