LSD/Projeto3/Parte3/simulation/qsim/ALUDemo.msim.vcd
$comment
	File created using the following command:
		vcd file ALUDemo.msim.vcd -direction
$end
$date
	Mon Mar 29 21:04:32 2021
$end
$version
	ModelSim Version 10.5b
$end
$timescale
	1ps
$end

$scope module aludemo1_vhd_vec_tst $end
$var wire 1 ! enable $end
$var wire 1 " HEX0 [6] $end
$var wire 1 # HEX0 [5] $end
$var wire 1 $ HEX0 [4] $end
$var wire 1 % HEX0 [3] $end
$var wire 1 & HEX0 [2] $end
$var wire 1 ' HEX0 [1] $end
$var wire 1 ( HEX0 [0] $end
$var wire 1 ) HEX1 [6] $end
$var wire 1 * HEX1 [5] $end
$var wire 1 + HEX1 [4] $end
$var wire 1 , HEX1 [3] $end
$var wire 1 - HEX1 [2] $end
$var wire 1 . HEX1 [1] $end
$var wire 1 / HEX1 [0] $end
$var wire 1 0 LEDR [7] $end
$var wire 1 1 LEDR [6] $end
$var wire 1 2 LEDR [5] $end
$var wire 1 3 LEDR [4] $end
$var wire 1 4 LEDR [3] $end
$var wire 1 5 LEDR [2] $end
$var wire 1 6 LEDR [1] $end
$var wire 1 7 LEDR [0] $end
$var wire 1 8 SW [10] $end
$var wire 1 9 SW [9] $end
$var wire 1 : SW [8] $end
$var wire 1 ; SW [7] $end
$var wire 1 < SW [6] $end
$var wire 1 = SW [5] $end
$var wire 1 > SW [4] $end
$var wire 1 ? SW [3] $end
$var wire 1 @ SW [2] $end
$var wire 1 A SW [1] $end
$var wire 1 B SW [0] $end

$scope module i1 $end
$var wire 1 C gnd $end
$var wire 1 D vcc $end
$var wire 1 E unknown $end
$var wire 1 F devoe $end
$var wire 1 G devclrn $end
$var wire 1 H devpor $end
$var wire 1 I ww_devoe $end
$var wire 1 J ww_devclrn $end
$var wire 1 K ww_devpor $end
$var wire 1 L ww_HEX0 [6] $end
$var wire 1 M ww_HEX0 [5] $end
$var wire 1 N ww_HEX0 [4] $end
$var wire 1 O ww_HEX0 [3] $end
$var wire 1 P ww_HEX0 [2] $end
$var wire 1 Q ww_HEX0 [1] $end
$var wire 1 R ww_HEX0 [0] $end
$var wire 1 S ww_enable $end
$var wire 1 T ww_SW [10] $end
$var wire 1 U ww_SW [9] $end
$var wire 1 V ww_SW [8] $end
$var wire 1 W ww_SW [7] $end
$var wire 1 X ww_SW [6] $end
$var wire 1 Y ww_SW [5] $end
$var wire 1 Z ww_SW [4] $end
$var wire 1 [ ww_SW [3] $end
$var wire 1 \ ww_SW [2] $end
$var wire 1 ] ww_SW [1] $end
$var wire 1 ^ ww_SW [0] $end
$var wire 1 _ ww_HEX1 [6] $end
$var wire 1 ` ww_HEX1 [5] $end
$var wire 1 a ww_HEX1 [4] $end
$var wire 1 b ww_HEX1 [3] $end
$var wire 1 c ww_HEX1 [2] $end
$var wire 1 d ww_HEX1 [1] $end
$var wire 1 e ww_HEX1 [0] $end
$var wire 1 f ww_LEDR [7] $end
$var wire 1 g ww_LEDR [6] $end
$var wire 1 h ww_LEDR [5] $end
$var wire 1 i ww_LEDR [4] $end
$var wire 1 j ww_LEDR [3] $end
$var wire 1 k ww_LEDR [2] $end
$var wire 1 l ww_LEDR [1] $end
$var wire 1 m ww_LEDR [0] $end
$var wire 1 n \HEX0[6]~output_o\ $end
$var wire 1 o \HEX0[5]~output_o\ $end
$var wire 1 p \HEX0[4]~output_o\ $end
$var wire 1 q \HEX0[3]~output_o\ $end
$var wire 1 r \HEX0[2]~output_o\ $end
$var wire 1 s \HEX0[1]~output_o\ $end
$var wire 1 t \HEX0[0]~output_o\ $end
$var wire 1 u \HEX1[6]~output_o\ $end
$var wire 1 v \HEX1[5]~output_o\ $end
$var wire 1 w \HEX1[4]~output_o\ $end
$var wire 1 x \HEX1[3]~output_o\ $end
$var wire 1 y \HEX1[2]~output_o\ $end
$var wire 1 z \HEX1[1]~output_o\ $end
$var wire 1 { \HEX1[0]~output_o\ $end
$var wire 1 | \LEDR[7]~output_o\ $end
$var wire 1 } \LEDR[6]~output_o\ $end
$var wire 1 ~ \LEDR[5]~output_o\ $end
$var wire 1 !! \LEDR[4]~output_o\ $end
$var wire 1 "! \LEDR[3]~output_o\ $end
$var wire 1 #! \LEDR[2]~output_o\ $end
$var wire 1 $! \LEDR[1]~output_o\ $end
$var wire 1 %! \LEDR[0]~output_o\ $end
$var wire 1 &! \SW[4]~input_o\ $end
$var wire 1 '! \SW[0]~input_o\ $end
$var wire 1 (! \SW[10]~input_o\ $end
$var wire 1 )! \SW[9]~input_o\ $end
$var wire 1 *! \SW[8]~input_o\ $end
$var wire 1 +! \inst|Add0~2_combout\ $end
$var wire 1 ,! \inst|Equal7~0_combout\ $end
$var wire 1 -! \inst|Add0~4_cout\ $end
$var wire 1 .! \inst|Add0~5_combout\ $end
$var wire 1 /! \inst|s_r[3]~0_combout\ $end
$var wire 1 0! \SW[1]~input_o\ $end
$var wire 1 1! \inst|Mult0|auto_generated|op_3~0_combout\ $end
$var wire 1 2! \SW[2]~input_o\ $end
$var wire 1 3! \SW[7]~input_o\ $end
$var wire 1 4! \SW[3]~input_o\ $end
$var wire 1 5! \SW[6]~input_o\ $end
$var wire 1 6! \inst|Mod0|auto_generated|divider|divider|StageOut[5]~1_combout\ $end
$var wire 1 7! \inst|Mod0|auto_generated|divider|divider|StageOut[5]~2_combout\ $end
$var wire 1 8! \inst|Mod0|auto_generated|divider|divider|selnose[5]~0_combout\ $end
$var wire 1 9! \inst|Mod0|auto_generated|divider|divider|StageOut[4]~0_combout\ $end
$var wire 1 :! \SW[5]~input_o\ $end
$var wire 1 ;! \inst|Div0|auto_generated|divider|divider|add_sub_2_result_int[0]~1\ $end
$var wire 1 <! \inst|Div0|auto_generated|divider|divider|add_sub_2_result_int[1]~3\ $end
$var wire 1 =! \inst|Div0|auto_generated|divider|divider|add_sub_2_result_int[2]~4_combout\ $end
$var wire 1 >! \inst|Div0|auto_generated|divider|divider|add_sub_2_result_int[2]~5\ $end
$var wire 1 ?! \inst|Div0|auto_generated|divider|divider|add_sub_2_result_int[3]~6_combout\ $end
$var wire 1 @! \inst|Div0|auto_generated|divider|divider|StageOut[10]~0_combout\ $end
$var wire 1 A! \inst|Div0|auto_generated|divider|divider|add_sub_2_result_int[1]~2_combout\ $end
$var wire 1 B! \inst|Div0|auto_generated|divider|divider|StageOut[9]~1_combout\ $end
$var wire 1 C! \inst|Div0|auto_generated|divider|divider|add_sub_2_result_int[0]~0_combout\ $end
$var wire 1 D! \inst|Div0|auto_generated|divider|divider|StageOut[8]~2_combout\ $end
$var wire 1 E! \inst|Div0|auto_generated|divider|divider|add_sub_3_result_int[0]~1_cout\ $end
$var wire 1 F! \inst|Div0|auto_generated|divider|divider|add_sub_3_result_int[1]~3_cout\ $end
$var wire 1 G! \inst|Div0|auto_generated|divider|divider|add_sub_3_result_int[2]~5_cout\ $end
$var wire 1 H! \inst|Div0|auto_generated|divider|divider|add_sub_3_result_int[3]~7_cout\ $end
$var wire 1 I! \inst|Div0|auto_generated|divider|divider|add_sub_3_result_int[4]~8_combout\ $end
$var wire 1 J! \inst|s_r[3]~5_combout\ $end
$var wire 1 K! \inst|s_r[3]~4_combout\ $end
$var wire 1 L! \inst|s_r[0]~19_combout\ $end
$var wire 1 M! \inst|Mod0|auto_generated|divider|divider|add_sub_3_result_int[0]~0_combout\ $end
$var wire 1 N! \inst|Mod0|auto_generated|divider|divider|add_sub_2_result_int[0]~1\ $end
$var wire 1 O! \inst|Mod0|auto_generated|divider|divider|add_sub_2_result_int[1]~3\ $end
$var wire 1 P! \inst|Mod0|auto_generated|divider|divider|add_sub_2_result_int[2]~5\ $end
$var wire 1 Q! \inst|Mod0|auto_generated|divider|divider|add_sub_2_result_int[3]~6_combout\ $end
$var wire 1 R! \inst|Mod0|auto_generated|divider|divider|add_sub_2_result_int[2]~4_combout\ $end
$var wire 1 S! \inst|Mod0|auto_generated|divider|divider|StageOut[10]~5_combout\ $end
$var wire 1 T! \inst|Mod0|auto_generated|divider|divider|add_sub_2_result_int[1]~2_combout\ $end
$var wire 1 U! \inst|Mod0|auto_generated|divider|divider|StageOut[9]~3_combout\ $end
$var wire 1 V! \inst|Mod0|auto_generated|divider|divider|add_sub_2_result_int[0]~0_combout\ $end
$var wire 1 W! \inst|Mod0|auto_generated|divider|divider|StageOut[8]~4_combout\ $end
$var wire 1 X! \inst|Mod0|auto_generated|divider|divider|add_sub_3_result_int[0]~1\ $end
$var wire 1 Y! \inst|Mod0|auto_generated|divider|divider|add_sub_3_result_int[1]~3\ $end
$var wire 1 Z! \inst|Mod0|auto_generated|divider|divider|add_sub_3_result_int[2]~5\ $end
$var wire 1 [! \inst|Mod0|auto_generated|divider|divider|add_sub_3_result_int[3]~7\ $end
$var wire 1 \! \inst|Mod0|auto_generated|divider|divider|add_sub_3_result_int[4]~8_combout\ $end
$var wire 1 ]! \inst|s_r[0]~20_combout\ $end
$var wire 1 ^! \inst|s_r[0]~21_combout\ $end
$var wire 1 _! \inst|s_r[0]~22_combout\ $end
$var wire 1 `! \inst|s_r[3]~2_combout\ $end
$var wire 1 a! \inst|s_r[0]~18_combout\ $end
$var wire 1 b! \inst|s_r[0]~23_combout\ $end
$var wire 1 c! \inst|s_r[2]~6_combout\ $end
$var wire 1 d! \inst|s_r[2]~7_combout\ $end
$var wire 1 e! \inst|Mod0|auto_generated|divider|divider|add_sub_3_result_int[2]~4_combout\ $end
$var wire 1 f! \inst|s_r[2]~3_combout\ $end
$var wire 1 g! \inst|Mult0|auto_generated|op_1~0_combout\ $end
$var wire 1 h! \inst|Mult0|auto_generated|op_3~1\ $end
$var wire 1 i! \inst|Mult0|auto_generated|op_3~3\ $end
$var wire 1 j! \inst|Mult0|auto_generated|op_3~4_combout\ $end
$var wire 1 k! \inst|s_r[2]~8_combout\ $end
$var wire 1 l! \inst|Add0~0_combout\ $end
$var wire 1 m! \inst|Add0~1_combout\ $end
$var wire 1 n! \inst|Add0~6\ $end
$var wire 1 o! \inst|Add0~8\ $end
$var wire 1 p! \inst|Add0~9_combout\ $end
$var wire 1 q! \inst|s_r[2]~9_combout\ $end
$var wire 1 r! \inst|s_r[2]~1_combout\ $end
$var wire 1 s! \inst|s_r[2]~10_combout\ $end
$var wire 1 t! \inst|Add0~11_combout\ $end
$var wire 1 u! \inst|Add0~10\ $end
$var wire 1 v! \inst|Add0~12_combout\ $end
$var wire 1 w! \inst|s_r[3]~13_combout\ $end
$var wire 1 x! \inst|s_r[3]~12_combout\ $end
$var wire 1 y! \inst|s_r[3]~14_combout\ $end
$var wire 1 z! \inst|Mod0|auto_generated|divider|divider|add_sub_3_result_int[3]~6_combout\ $end
$var wire 1 {! \inst|Mod0|auto_generated|divider|divider|StageOut[15]~6_combout\ $end
$var wire 1 |! \inst|Mult0|auto_generated|cs2a[1]~0_combout\ $end
$var wire 1 }! \inst|Mult0|auto_generated|op_1~1\ $end
$var wire 1 ~! \inst|Mult0|auto_generated|op_1~2_combout\ $end
$var wire 1 !" \inst|Mult0|auto_generated|op_3~5\ $end
$var wire 1 "" \inst|Mult0|auto_generated|op_3~6_combout\ $end
$var wire 1 #" \inst|s_r[3]~15_combout\ $end
$var wire 1 $" \inst|s_r[3]~16_combout\ $end
$var wire 1 %" \inst|s_r[3]~11_combout\ $end
$var wire 1 &" \inst|s_r[3]~17_combout\ $end
$var wire 1 '" \inst|s_r[1]~24_combout\ $end
$var wire 1 (" \inst|s_r[1]~26_combout\ $end
$var wire 1 )" \inst|s_r[1]~27_combout\ $end
$var wire 1 *" \inst|Mult0|auto_generated|op_3~2_combout\ $end
$var wire 1 +" \inst|Mod0|auto_generated|divider|divider|add_sub_3_result_int[1]~2_combout\ $end
$var wire 1 ," \inst|s_r[1]~25_combout\ $end
$var wire 1 -" \inst|s_r[1]~28_combout\ $end
$var wire 1 ." \inst|Add0~7_combout\ $end
$var wire 1 /" \inst|s_r[1]~29_combout\ $end
$var wire 1 0" \inst|s_r[1]~30_combout\ $end
$var wire 1 1" \inst2|decOut_n[3]~1_combout\ $end
$var wire 1 2" \inst2|decOut_n[6]~0_combout\ $end
$var wire 1 3" \enable~input_o\ $end
$var wire 1 4" \inst2|Equal7~0_combout\ $end
$var wire 1 5" \inst2|decOut_n[6]~2_combout\ $end
$var wire 1 6" \inst2|decOut_n~3_combout\ $end
$var wire 1 7" \inst2|decOut_n~4_combout\ $end
$var wire 1 8" \inst2|decOut_n~5_combout\ $end
$var wire 1 9" \inst2|decOut_n~6_combout\ $end
$var wire 1 :" \inst2|decOut_n[3]~7_combout\ $end
$var wire 1 ;" \inst2|decOut_n[3]~8_combout\ $end
$var wire 1 <" \inst2|decOut_n~9_combout\ $end
$var wire 1 =" \inst2|decOut_n~10_combout\ $end
$var wire 1 >" \inst2|decOut_n~11_combout\ $end
$var wire 1 ?" \inst2|decOut_n~12_combout\ $end
$var wire 1 @" \inst2|decOut_n~13_combout\ $end
$var wire 1 A" \inst2|decOut_n~14_combout\ $end
$var wire 1 B" \inst2|decOut_n~15_combout\ $end
$var wire 1 C" \inst2|decOut_n~16_combout\ $end
$var wire 1 D" \inst|Mult0|auto_generated|op_1~3\ $end
$var wire 1 E" \inst|Mult0|auto_generated|op_1~5\ $end
$var wire 1 F" \inst|Mult0|auto_generated|op_1~7\ $end
$var wire 1 G" \inst|Mult0|auto_generated|op_1~9\ $end
$var wire 1 H" \inst|Mult0|auto_generated|op_1~10_combout\ $end
$var wire 1 I" \inst|Mult0|auto_generated|op_1~8_combout\ $end
$var wire 1 J" \inst|Mult0|auto_generated|op_1~6_combout\ $end
$var wire 1 K" \inst|Mult0|auto_generated|op_1~4_combout\ $end
$var wire 1 L" \inst|Mult0|auto_generated|op_3~7\ $end
$var wire 1 M" \inst|Mult0|auto_generated|op_3~9\ $end
$var wire 1 N" \inst|Mult0|auto_generated|op_3~11\ $end
$var wire 1 O" \inst|Mult0|auto_generated|op_3~13\ $end
$var wire 1 P" \inst|Mult0|auto_generated|op_3~14_combout\ $end
$var wire 1 Q" \inst|Mult0|auto_generated|op_3~12_combout\ $end
$var wire 1 R" \inst|Mult0|auto_generated|op_3~10_combout\ $end
$var wire 1 S" \inst|Mult0|auto_generated|op_3~8_combout\ $end
$var wire 1 T" \inst1|decOut_n[6]~5_combout\ $end
$var wire 1 U" \inst1|decOut_n[6]~3_combout\ $end
$var wire 1 V" \inst1|decOut_n[6]~33_combout\ $end
$var wire 1 W" \inst1|decOut_n~20_combout\ $end
$var wire 1 X" \inst1|decOut_n~22_combout\ $end
$var wire 1 Y" \inst|m[0]~8_combout\ $end
$var wire 1 Z" \inst|m[3]~11_combout\ $end
$var wire 1 [" \inst|m[1]~9_combout\ $end
$var wire 1 \" \inst|m[2]~10_combout\ $end
$var wire 1 ]" \inst1|decOut_n~21_combout\ $end
$var wire 1 ^" \inst1|decOut_n~23_combout\ $end
$var wire 1 _" \inst1|decOut_n~24_combout\ $end
$var wire 1 `" \inst1|decOut_n[4]~25_combout\ $end
$var wire 1 a" \inst1|decOut_n[3]~15_combout\ $end
$var wire 1 b" \inst1|decOut_n[3]~13_combout\ $end
$var wire 1 c" \inst1|decOut_n[3]~34_combout\ $end
$var wire 1 d" \inst1|decOut_n~26_combout\ $end
$var wire 1 e" \inst1|decOut_n~27_combout\ $end
$var wire 1 f" \inst1|decOut_n~28_combout\ $end
$var wire 1 g" \inst1|decOut_n~29_combout\ $end
$var wire 1 h" \inst1|decOut_n~30_combout\ $end
$var wire 1 i" \inst1|decOut_n~31_combout\ $end
$var wire 1 j" \inst1|decOut_n~32_combout\ $end
$var wire 1 k" \inst|Mult0|auto_generated|le4a\ [5] $end
$var wire 1 l" \inst|Mult0|auto_generated|le4a\ [4] $end
$var wire 1 m" \inst|Mult0|auto_generated|le4a\ [3] $end
$var wire 1 n" \inst|Mult0|auto_generated|le4a\ [2] $end
$var wire 1 o" \inst|Mult0|auto_generated|le4a\ [1] $end
$var wire 1 p" \inst|Mult0|auto_generated|le4a\ [0] $end
$var wire 1 q" \inst|Mult0|auto_generated|le3a\ [5] $end
$var wire 1 r" \inst|Mult0|auto_generated|le3a\ [4] $end
$var wire 1 s" \inst|Mult0|auto_generated|le3a\ [3] $end
$var wire 1 t" \inst|Mult0|auto_generated|le3a\ [2] $end
$var wire 1 u" \inst|Mult0|auto_generated|le3a\ [1] $end
$var wire 1 v" \inst|Mult0|auto_generated|le3a\ [0] $end
$var wire 1 w" \inst|Mult0|auto_generated|le5a\ [4] $end
$var wire 1 x" \inst|Mult0|auto_generated|le5a\ [3] $end
$var wire 1 y" \inst|Mult0|auto_generated|le5a\ [2] $end
$var wire 1 z" \inst|Mult0|auto_generated|le5a\ [1] $end
$var wire 1 {" \inst|Mult0|auto_generated|le5a\ [0] $end
$var wire 1 |" \inst|ALT_INV_m[0]~8_combout\ $end
$var wire 1 }" \inst|ALT_INV_s_r[0]~23_combout\ $end
$upscope $end
$upscope $end
$enddefinitions $end
#0
$dumpvars
0!
0C
1D
xE
1F
1G
1H
1I
1J
1K
0S
1n
1o
1p
1q
1r
1s
1t
1u
1v
1w
1x
1y
1z
1{
0|
0}
0~
0!!
0"!
0#!
1$!
0%!
0&!
0'!
1(!
0)!
1*!
0+!
0,!
1-!
0.!
1/!
10!
01!
02!
13!
04!
15!
06!
07!
08!
19!
1:!
1;!
0<!
0=!
1>!
0?!
0@!
0A!
0B!
1C!
1D!
1E!
0F!
1G!
0H!
0I!
0J!
1K!
1L!
0M!
1N!
0O!
1P!
0Q!
0R!
0S!
0T!
0U!
1V!
1W!
1X!
0Y!
1Z!
0[!
0\!
0]!
1^!
0_!
1`!
0a!
1b!
0c!
0d!
0e!
0f!
0g!
1h!
0i!
1j!
1k!
0l!
1m!
0n!
1o!
1p!
1q!
0r!
0s!
0t!
0u!
1v!
0w!
1x!
1y!
0z!
0{!
1|!
0}!
0~!
0!"
1""
0#"
1$"
0%"
0&"
1'"
0("
0)"
0*"
0+"
0,"
1-"
0."
1/"
10"
01"
02"
03"
04"
15"
16"
17"
18"
19"
1:"
1;"
1<"
0="
0>"
1?"
0@"
1A"
0B"
1C"
1D"
0E"
1F"
0G"
1H"
0I"
1J"
1K"
1L"
0M"
0N"
1O"
0P"
0Q"
0R"
1S"
1T"
1U"
1V"
0W"
0X"
1Y"
0Z"
0["
0\"
0]"
1^"
1_"
1`"
1a"
0b"
1c"
0d"
0e"
1f"
0g"
1h"
0i"
1j"
0|"
0}"
18
09
1:
1;
1<
1=
0>
0?
0@
1A
0B
1L
1M
1N
1O
1P
1Q
1R
1T
0U
1V
1W
1X
1Y
0Z
0[
0\
1]
0^
1_
1`
1a
1b
1c
1d
1e
0f
0g
0h
0i
0j
0k
1l
0m
0k"
0l"
1m"
1n"
1o"
0p"
xq"
0r"
0s"
0t"
1u"
1v"
xw"
0x"
0y"
0z"
0{"
1"
1#
1$
1%
1&
1'
1(
1)
1*
1+
1,
1-
1.
1/
00
01
02
03
04
05
16
07
$end
#80000
19
0=
1>
1?
0A
1B
1^
0]
1[
1Z
0Y
1U
1)!
0:!
1&!
14!
00!
1'!
09!
11!
0h!
1A!
1T!
1+"
0x!
0|!
1s"
1R"
1N"
1Q"
0O"
1P"
17!
18!
1B!
1H!
1U!
1z!
1[!
1k"
1w!
1%"
1x"
1y"
1.!
1]!
1a!
1p"
1{"
0;!
0D!
0N!
0W!
1t"
0u"
1."
0o!
0o"
0'"
1("
1+!
0/!
0`!
0m!
1t!
0v!
0."
1o!
0a!
0%"
1r!
0$"
0.!
1)"
00"
0""
0p!
0+"
0S"
1M"
0j!
1!"
0b!
1_!
1I"
1&"
1}!
1\!
1{!
1e!
1I!
19!
1d!
1=!
1@!
1R!
1S!
0P"
0Q"
0T"
0_"
1~!
0m"
1,"
1i!
1<!
0B!
1O!
0U!
1}"
0e!
0R!
0=!
1j!
0!"
0J"
0z!
0[!
0H!
0A!
0<!
1B!
0T!
0O!
1U!
0L!
0~!
0D"
1Q"
0L"
0k!
0R"
0N"
0a"
0,"
0q!
06"
08"
0<"
1="
0-"
1s!
0&"
1b!
1p!
0/"
0}"
0="
0:"
1B"
0Q"
1O"
1q!
1S"
1_"
1a"
0K"
1E"
0^!
1e!
1R!
1=!
0I!
0\!
1R"
1N"
1L"
1f!
1"!
0$!
1%!
1Q"
0O"
0]!
0{!
1L!
0_!
1J"
0M"
1P"
0a"
1j
0l
0"!
1#!
1m
06
14
0%!
1]!
1^!
0P"
0_"
1a"
0j
1k
17
0m
15
04
1T"
1_"
1_!
07
#100000
1!
1S
13"
05"
07"
1>"
0^"
0`"
0c"
0f"
0h"
0j"
0?"
0A"
0{
0z
0y
0x
0w
0v
0o
0n
0e
0d
0c
0b
0a
0`
0M
0L
0s
0r
0/
0.
0-
0,
0+
0*
0#
0"
0Q
0P
0'
0&
#160000
0>
1@
1\
0Z
0&!
12!
0=!
0R!
0e!
1l!
0r!
1x!
1|!
1l"
1.!
1n!
0v"
0E!
1M!
0X!
0]!
1a!
1o"
0{"
0S"
1""
0b!
1+"
1Y!
1F!
01!
1."
0o!
0I"
1G"
0n"
0s!
0p!
0f!
1}"
0q!
1K"
0E"
0H"
0Q"
1p!
1u!
1/"
0G!
1e!
0Z!
1,"
12"
16"
1="
0T"
0_"
0a"
0U"
17"
15"
1z!
1[!
1f!
1H!
1v!
1q!
1P"
0J"
1S"
0#!
1%!
0R"
1I!
1\!
1{!
0k
1m
05
0,"
0L!
1_"
17
1n
1o
0^!
1L
1M
1#
1"
0_!
#240000
1=
0:
0<
1Y
0X
0V
0*!
05!
1:!
0C!
1;!
1D!
0V!
1N!
1W!
1u"
0."
1o!
0o"
1'"
1z"
09!
1c!
0t"
0p!
1r!
0y"
1n"
1J!
1`!
0a!
1b!
1%"
1L!
0y!
0)"
0K"
1E"
1I"
0G"
1s!
0q!
1g!
0}!
0d!
0B!
0U!
1J"
10"
0""
1p!
0/"
1*"
0+"
0Y!
1,"
0F!
0}"
00"
1R"
0f!
1k!
1~!
1D"
0j!
1!"
0s!
1H"
1Q"
0J"
0F"
0S"
1-"
1#"
1^!
02"
06"
18"
1:"
0="
1@"
0B"
0C"
1A"
0;"
09"
07"
05"
1_!
1$"
1/"
0I"
1G"
0R"
0P"
1K"
0E"
0L"
1q!
0_"
11"
0@"
1$!
1#!
0%!
0A"
15"
1s!
1J"
1F"
1M"
1_"
1a"
0H"
0Q"
10"
1&"
0b!
1l
1k
0#!
0$!
1}"
0m
16
15
1T"
0_"
0a"
1P"
1I"
0G"
0N"
14"
0>"
0k
0l
07
0n
0o
0p
0q
1s
0t
06
05
1?"
1A"
05"
1;"
1H"
1O"
0T"
1U"
0L
0M
0N
0O
1Q
0R
1"!
1$!
1#!
1n
0s
0(
1'
0%
0$
0#
0"
1%!
0U"
1j
1l
1k
1L
0Q
1m
16
15
14
0'
1"
17
1q
0n
1s
1r
1O
0L
1Q
1P
1'
1&
1%
0"
#320000
1:
1<
09
0?
0;
0[
1X
0W
1V
0U
0)!
1*!
03!
15!
04!
0@!
0D!
0H!
0S!
0W!
0z!
0[!
0k"
0p"
0z"
19!
1t"
0p!
0u!
0r!
0n"
07!
0v!
0w!
0s"
0%"
0x"
0l"
1m"
0J!
1/!
0t!
1b!
1r!
0'"
0L!
0c!
1d!
1w!
0("
1)"
0I"
0&"
0~!
1y!
0$"
1=!
0>!
1R!
0P!
0K"
0s!
1A!
1T!
1j!
0!"
1o"
0m"
1n"
0\!
1+"
1Y!
0,"
1z!
1[!
0{!
0I!
1F!
1H!
0}"
1I!
1L!
1\!
0e!
1f!
1{!
1,"
1K"
0J"
1U!
1B!
1S"
0M"
1Q!
1S!
1?!
1@!
0#"
1""
1L"
1>"
1Q"
0O"
0-"
0)"
0k!
1]!
0^!
00"
1s!
01"
04"
16"
1<"
17"
0;"
06"
08"
0:"
0<"
1B"
0q!
0/"
0P"
0A"
0H!
0@!
1D!
1)"
0z!
0[!
0S!
1W!
1e!
1N"
1-"
0,"
0]!
1^!
0L!
0#!
0"!
0%!
0^!
1/"
0Q"
0+"
0Y!
1,"
1z!
1[!
0\!
0{!
0-"
0F!
1H!
0I!
1_"
1C"
0?"
1;"
19"
07"
0k
0j
1#!
0$!
0m
05
04
1L!
1I!
1G!
0/"
1]!
1\!
1{!
0e!
1Z!
0,"
1T"
1a"
1k
0l
07
0s
0q
1o
06
15
1U"
0z!
0[!
0{!
1,"
0H!
0L!
0]!
1^!
0Q
0O
1M
0o
1p
1q
0r
1t
0'
0%
1#
0^!
0I!
0\!
0M
1N
1O
0P
1R
1(
0&
1%
1$
0#
1]!
0f!
0,"
1L!
0]!
1^!
#400000
0:
0<
1?
0@
1A
0B
08
0^
1]
0\
1[
0X
0V
0T
0(!
0*!
05!
14!
02!
10!
0'!
1C!
1E!
0M!
1X!
1V!
1v"
11!
0A!
1F!
0T!
1+"
1Y!
1'"
1r"
1R"
1Q"
1P"
0=!
1>!
0R!
1P!
1e!
1H!
1z!
1[!
1k"
1p"
1("
1l"
1z"
09!
0t"
1p!
1u!
0r!
1s"
0n"
1,!
0K!
0`!
1b"
0b!
1%"
0d!
0y!
0-!
1~!
0s!
1v!
1q!
1A!
1<!
1T!
1O!
1J"
1I"
0)"
0j!
1!"
0o"
1m"
1n"
0H"
1\!
1{!
1I!
1f!
0Q!
0?!
0T"
0_"
0e!
1,"
0U!
0B!
01!
1h!
0+"
0Y!
0F!
1}"
0*"
0i!
0U"
0L!
0f!
0{!
0P"
0K"
1E"
0J"
0F"
1-"
0Q"
1O"
0R"
0N"
1R!
0P!
1=!
0>!
1s!
1$"
0""
0L"
0.!
1#"
12"
16"
1="
17"
15"
0_!
1&"
02"
06"
1:"
1@"
0B"
1?!
1Q!
1Q"
1P"
0I"
1G"
1R"
1N"
1J"
1T"
1_"
0#"
0^!
1j!
0-"
0#!
1%!
1k!
1U"
0R"
0N"
1H"
0O"
0T"
0_"
0C"
1A"
0;"
07"
05"
16"
18"
0@"
1B"
1b!
0k
1#!
0}"
1m
05
12"
06"
0="
0B"
1C"
0A"
09"
17"
0U"
0Q"
1O"
0a"
1k
17
1"!
1n
1o
15
0b"
0P"
1_"
0C"
0>"
07"
15"
1j
1L
1M
0n
0o
0q
1s
0t
14
1#
1"
0%!
1?"
1A"
1T"
1a"
0L
0M
0O
1Q
0R
1o
0p
0s
1t
0m
0(
1'
0%
0#
0"
1b"
1U"
1M
0N
0Q
1R
07
1n
0o
0t
1(
0'
0$
1#
1L
0M
0R
1s
1r
0(
0#
1"
1Q
1P
1'
1&
#480000
1:
1<
0A
1B
18
19
0=
1^
0]
0Y
1X
1V
1U
1T
1(!
1)!
1*!
15!
0:!
00!
1'!
0E!
1M!
0X!
1a!
0v"
11!
0h!
0A!
0<!
0T!
0O!
1+"
0x!
0|!
0r"
1R"
1N"
1Q"
0O"
1P"
0;!
0D!
0N!
0W!
0u"
1."
0o!
1o"
0'"
0z"
19!
1t"
0p!
0u!
0s"
1y"
0n"
0,!
0/!
1K!
0l!
1t!
0b"
1d!
1#"
1)"
1-"
1r!
0s!
0$"
1-!
1I"
0~!
0q!
0g!
1}!
0J"
1""
1/"
0P"
0Q"
0T"
0_"
0E"
0m"
1n"
1y!
0,"
0R!
1P!
1U!
0=!
1>!
1B!
1i!
01!
0b!
1Y!
1F!
1}"
1="
0?!
1f!
0Q!
1K"
1F"
0U"
1_"
0a"
0#"
0R"
1~!
0!"
0""
1Q"
1.!
02"
08"
1>"
1s!
0-"
1$"
0k!
16"
18"
1B"
0?"
0A"
19"
05"
0$"
0I"
0S"
1M"
0#!
1%!
1R"
1a"
0Q"
1C"
09"
17"
0k
1#!
1m
05
0_"
0a"
1k
17
0n
1p
0s
0r
15
0L
1N
0Q
0P
1o
0p
1t
0'
0&
1$
0"
1M
0N
1R
1(
0$
1#
#560000
0<
0B
1=
1@
1;
0^
1\
1Y
0X
1W
13!
05!
1:!
12!
0'!
0+!
1E!
0M!
1X!
0a!
1=!
0>!
0G!
1R!
0P!
1e!
0Z!
1l!
1x!
1|!
1;!
1D!
1N!
1W!
0."
1o!
1'"
1z"
16!
09!
0t"
1p!
1u!
0y"
0n"
17!
0v!
0%"
1x"
1m"
0H"
0&"
0=!
1>!
0R!
1P!
0K"
1I"
0G"
1v!
1q!
1g!
0}!
0B!
0U!
0F"
10"
0/"
1,"
0o"
0m"
1n"
0z!
1Q!
1S!
1?!
1@!
1b!
0Y!
0F!
0.!
0n!
0}"
1."
1z!
1{!
1K"
1J"
1F"
1""
1L"
0="
0I"
1G"
0f!
0~!
0j!
1!"
1H"
1Q"
1S"
0M"
0Q!
0?!
06"
1@"
0B"
1P"
0C"
1A"
07"
1a"
0P"
0H"
0Q"
1I"
0G"
1/"
1$!
0"!
0%!
1H"
1Q"
1P"
1_"
0a"
1l
0j
0m
16
04
0_"
1a"
0P"
07
0o
1s
0t
1T"
1_"
0M
1Q
0R
0(
1'
0#
1U"
