LSD/Projeto4/Parte2/simulation/qsim/Register_Demo.msim.vcd
$comment
	File created using the following command:
		vcd file Register_Demo.msim.vcd -direction
$end
$date
	Mon Apr 12 14:39:23 2021
$end
$version
	ModelSim Version 10.5b
$end
$timescale
	1ps
$end

$scope module register8_vhd_vec_tst $end
$var wire 1 ! clk $end
$var wire 1 " dataIn [7] $end
$var wire 1 # dataIn [6] $end
$var wire 1 $ dataIn [5] $end
$var wire 1 % dataIn [4] $end
$var wire 1 & dataIn [3] $end
$var wire 1 ' dataIn [2] $end
$var wire 1 ( dataIn [1] $end
$var wire 1 ) dataIn [0] $end
$var wire 1 * dataOut [7] $end
$var wire 1 + dataOut [6] $end
$var wire 1 , dataOut [5] $end
$var wire 1 - dataOut [4] $end
$var wire 1 . dataOut [3] $end
$var wire 1 / dataOut [2] $end
$var wire 1 0 dataOut [1] $end
$var wire 1 1 dataOut [0] $end
$var wire 1 2 reset $end
$var wire 1 3 wrEn $end

$scope module i1 $end
$var wire 1 4 gnd $end
$var wire 1 5 vcc $end
$var wire 1 6 unknown $end
$var wire 1 7 devoe $end
$var wire 1 8 devclrn $end
$var wire 1 9 devpor $end
$var wire 1 : ww_devoe $end
$var wire 1 ; ww_devclrn $end
$var wire 1 < ww_devpor $end
$var wire 1 = ww_clk $end
$var wire 1 > ww_wrEn $end
$var wire 1 ? ww_reset $end
$var wire 1 @ ww_dataIn [7] $end
$var wire 1 A ww_dataIn [6] $end
$var wire 1 B ww_dataIn [5] $end
$var wire 1 C ww_dataIn [4] $end
$var wire 1 D ww_dataIn [3] $end
$var wire 1 E ww_dataIn [2] $end
$var wire 1 F ww_dataIn [1] $end
$var wire 1 G ww_dataIn [0] $end
$var wire 1 H ww_dataOut [7] $end
$var wire 1 I ww_dataOut [6] $end
$var wire 1 J ww_dataOut [5] $end
$var wire 1 K ww_dataOut [4] $end
$var wire 1 L ww_dataOut [3] $end
$var wire 1 M ww_dataOut [2] $end
$var wire 1 N ww_dataOut [1] $end
$var wire 1 O ww_dataOut [0] $end
$var wire 1 P \dataOut[0]~output_o\ $end
$var wire 1 Q \dataOut[1]~output_o\ $end
$var wire 1 R \dataOut[2]~output_o\ $end
$var wire 1 S \dataOut[3]~output_o\ $end
$var wire 1 T \dataOut[4]~output_o\ $end
$var wire 1 U \dataOut[5]~output_o\ $end
$var wire 1 V \dataOut[6]~output_o\ $end
$var wire 1 W \dataOut[7]~output_o\ $end
$var wire 1 X \clk~input_o\ $end
$var wire 1 Y \dataIn[0]~input_o\ $end
$var wire 1 Z \reset~input_o\ $end
$var wire 1 [ \dataOut~0_combout\ $end
$var wire 1 \ \wrEn~input_o\ $end
$var wire 1 ] \dataOut[0]~1_combout\ $end
$var wire 1 ^ \dataOut[0]~reg0_q\ $end
$var wire 1 _ \dataIn[1]~input_o\ $end
$var wire 1 ` \dataOut~2_combout\ $end
$var wire 1 a \dataOut[1]~reg0_q\ $end
$var wire 1 b \dataIn[2]~input_o\ $end
$var wire 1 c \dataOut~3_combout\ $end
$var wire 1 d \dataOut[2]~reg0_q\ $end
$var wire 1 e \dataIn[3]~input_o\ $end
$var wire 1 f \dataOut~4_combout\ $end
$var wire 1 g \dataOut[3]~reg0_q\ $end
$var wire 1 h \dataIn[4]~input_o\ $end
$var wire 1 i \dataOut~5_combout\ $end
$var wire 1 j \dataOut[4]~reg0_q\ $end
$var wire 1 k \dataIn[5]~input_o\ $end
$var wire 1 l \dataOut~6_combout\ $end
$var wire 1 m \dataOut[5]~reg0_q\ $end
$var wire 1 n \dataIn[6]~input_o\ $end
$var wire 1 o \dataOut~7_combout\ $end
$var wire 1 p \dataOut[6]~reg0_q\ $end
$var wire 1 q \dataIn[7]~input_o\ $end
$var wire 1 r \dataOut~8_combout\ $end
$var wire 1 s \dataOut[7]~reg0_q\ $end
$upscope $end
$upscope $end
$enddefinitions $end
#0
$dumpvars
0!
02
03
04
15
x6
17
18
19
1:
1;
1<
0=
0>
0?
0P
0Q
0R
0S
0T
0U
0V
0W
0X
0Y
0Z
0[
0\
0]
0^
0_
0`
0a
0b
0c
0d
0e
0f
0g
0h
0i
0j
0k
0l
0m
0n
0o
0p
0q
0r
0s
0"
0#
0$
0%
0&
0'
0(
0)
0*
0+
0,
0-
0.
0/
00
01
0@
0A
0B
0C
0D
0E
0F
0G
0H
0I
0J
0K
0L
0M
0N
0O
$end
#10000
12
1?
1Z
1]
#20000
1(
1F
1_
#25000
1$
1B
1k
#30000
1#
1A
1n
#35000
1!
1"
1=
1@
1q
1X
#40000
0(
1%
0F
1C
1h
0_
#45000
1&
1D
1e
#50000
0$
1'
1E
0B
0k
1b
#55000
1)
1G
1Y
#60000
1(
0#
1F
0A
0n
1_
#70000
0!
0"
13
0=
0@
1>
1\
0q
0X
#75000
1$
1B
1k
#80000
0(
0%
0F
0C
0h
0_
#90000
1#
0&
0D
1A
1n
0e
#100000
1(
0$
0'
02
1F
0E
0B
0?
0Z
0k
0b
1_
1[
1`
1o
#105000
1!
1"
1=
1@
1q
1X
1^
1a
1p
1r
1V
1Q
1P
1I
1N
1O
11
10
1+
#110000
0)
0G
0Y
0[
#120000
0(
0#
1%
0F
1C
0A
0n
1h
0_
0`
1i
0o
#125000
1$
1B
1k
1l
#135000
1&
1D
1e
1f
#140000
1(
0!
0"
1F
0@
0=
0X
0q
1_
1`
0r
#150000
0$
1#
1'
1E
0B
1A
1n
0k
1b
1c
0l
1o
#160000
0(
0%
0F
0C
0h
0_
0`
0i
#165000
1)
1G
1Y
1[
#175000
1$
1!
1"
1B
1@
1=
1X
1q
1k
1l
1r
0a
1d
1g
1S
1R
0Q
1L
1M
0N
00
1/
1.
#180000
1(
0#
0&
1F
0D
0A
0n
0e
1_
1`
0f
0o
#200000
0(
0$
1%
0'
0F
0E
1C
0B
0k
1h
0b
0_
0`
0c
1i
0l
#210000
1#
0!
0"
1A
0@
0=
0X
0q
1n
1o
0r
#220000
1(
0)
0G
1F
1_
0Y
0[
1`
#225000
1$
1&
1D
1B
1k
1e
1f
1l
#240000
0(
0#
0%
0F
0C
0A
0n
0h
0_
0`
0i
0o
#245000
1!
1"
1=
1@
1q
1X
0^
0d
1m
0p
1r
0V
1U
0R
0P
0I
1J
0M
0O
01
0/
1,
0+
#250000
0$
1'
1E
0B
0k
1b
1c
0l
#260000
1(
1F
1_
1`
#270000
1#
0&
0D
1A
1n
0e
0f
1o
#275000
1$
1)
1G
1B
1k
1Y
1[
1l
#280000
0(
0!
0"
1%
0F
1C
0@
0=
0X
0q
1h
0_
0`
1i
0r
#300000
1(
0$
0#
0'
1F
0E
0B
0A
0n
0k
0b
1_
1`
0c
0l
0o
#315000
1!
1"
1&
1=
1D
1@
1q
1e
1X
1^
1a
0g
1j
0m
1f
1r
0U
1T
0S
1Q
1P
0J
1K
0L
1N
1O
11
10
0.
1-
0,
#320000
0(
0%
0F
0C
0h
0_
0`
0i
#325000
1$
1B
1k
1l
#330000
1#
0)
0G
1A
1n
0Y
0[
1o
#340000
1(
1F
1_
1`
#350000
0$
0!
0"
1'
1E
0B
0@
0=
0X
0q
0k
1b
1c
0l
0r
#360000
0(
0#
1%
0&
0F
0D
1C
0A
0n
1h
0e
0_
0`
0f
1i
0o
#375000
1$
1B
1k
1l
#380000
1(
1F
1_
1`
#385000
1!
1"
1)
1=
1G
1@
1q
1Y
1X
0^
1d
1m
1[
1r
1U
1R
0P
1J
1M
0O
01
1/
1,
#390000
1#
1A
1n
1o
#400000
0(
0$
0%
0'
0F
0E
0C
0B
0k
0h
0b
0_
0`
0c
0i
0l
#405000
1&
1D
1e
1f
#420000
1(
0#
0!
0"
1F
0A
0@
0=
0X
0q
0n
1_
1`
0o
0r
#425000
1$
1B
1k
1l
#440000
0(
1%
0)
0G
0F
1C
1h
0_
0Y
0[
0`
1i
#450000
0$
1#
0&
1'
1E
0D
0B
1A
1n
0k
0e
1b
1c
0f
0l
1o
#455000
1!
1"
1=
1@
1q
1X
0a
0m
1p
1r
1V
0U
0Q
1I
0J
0N
00
0,
1+
#460000
1(
1F
1_
1`
#475000
1$
1B
1k
1l
#480000
0(
0#
0%
0F
0C
0A
0n
0h
0_
0`
0i
0o
#490000
0!
0"
0=
0@
0q
0X
0r
#495000
1&
1)
1G
1D
1e
1Y
1[
1f
#500000
1(
0$
0'
1F
0E
0B
0k
0b
1_
1`
0c
0l
#510000
1#
1A
1n
1o
#520000
0(
1%
0F
1C
1h
0_
0`
1i
#525000
1$
1!
1"
1B
1@
1=
1X
1q
1k
1l
1r
1^
0d
1g
1S
0R
1P
1L
0M
1O
11
0/
1.
#540000
1(
0#
0&
1F
0D
0A
0n
0e
1_
1`
0f
0o
#550000
0$
1'
0)
0G
1E
0B
0k
1b
0Y
0[
1c
0l
#560000
0(
0!
0"
0%
0F
0C
0@
0=
0X
0q
0h
0_
0`
0i
0r
#570000
1#
1A
1n
1o
#575000
1$
1B
1k
1l
#580000
1(
1F
1_
1`
#585000
1&
1D
1e
1f
#595000
1!
1"
1=
1@
1q
1X
0^
1a
1d
0j
1m
1r
1U
0T
1R
1Q
0P
1J
0K
1M
1N
0O
01
10
1/
0-
1,
#600000
0(
0$
0#
1%
0'
0F
0E
1C
0B
0A
0n
0k
1h
0b
0_
0`
0c
1i
0l
0o
#605000
1)
1G
1Y
1[
#620000
1(
1F
1_
1`
#625000
1$
1B
1k
1l
#630000
1#
0!
0"
0&
0D
1A
0@
0=
0X
0q
1n
0e
0f
1o
0r
#640000
0(
0%
0F
0C
0h
0_
0`
0i
#650000
0$
1'
1E
0B
0k
1b
1c
0l
#660000
1(
0#
0)
0G
1F
0A
0n
1_
0Y
0[
1`
0o
#665000
1!
1"
1=
1@
1q
1X
0g
0m
0p
1r
0V
0U
0S
0I
0J
0L
0.
0,
0+
#675000
1$
1&
1D
1B
1k
1e
1f
1l
#680000
0(
1%
0F
1C
1h
0_
0`
1i
#690000
1#
1A
1n
1o
#700000
1(
0$
0!
0"
0'
1F
0E
0B
0@
0=
0X
0q
0k
0b
1_
1`
0c
0l
0r
#715000
1)
1G
1Y
1[
#720000
0(
0#
0%
0&
0F
0D
0C
0A
0n
0h
0e
0_
0`
0f
0i
0o
#725000
1$
1B
1k
1l
#735000
1!
1"
1=
1@
1q
1X
1^
0a
0d
1m
1r
1U
0R
0Q
1P
1J
0M
0N
1O
11
00
0/
1,
#740000
1(
1F
1_
1`
#750000
0$
1#
1'
1E
0B
1A
1n
0k
1b
1c
0l
1o
#760000
0(
1%
0F
1C
1h
0_
0`
1i
#765000
1&
1D
1e
1f
#770000
0!
0"
0)
0=
0G
0@
0q
0Y
0X
0[
0r
#775000
1$
1B
1k
1l
#780000
1(
0#
1F
0A
0n
1_
1`
0o
#800000
0(
0$
0%
0'
0F
0E
0C
0B
0k
0h
0b
0_
0`
0c
0i
0l
#805000
1!
1"
1=
1@
1q
1X
0^
1g
0m
1r
0U
1S
0P
0J
1L
0O
01
1.
0,
#810000
1#
0&
0D
1A
1n
0e
0f
1o
#820000
1(
1F
1_
1`
#825000
1$
1)
1G
1B
1k
1Y
1[
1l
#840000
0(
0#
0!
0"
1%
0F
1C
0A
0@
0=
0X
0q
0n
1h
0_
0`
1i
0o
0r
#850000
0$
1'
1E
0B
0k
1b
1c
0l
#855000
1&
1D
1e
1f
#860000
1(
1F
1_
1`
#870000
1#
1A
1n
1o
#875000
1$
1!
1"
1B
1@
1=
1X
1q
1k
1l
1r
1^
1a
1d
1j
1p
1V
1T
1R
1Q
1P
1I
1K
1M
1N
1O
11
10
1/
1-
1+
#880000
0(
0%
0)
0G
0F
0C
0h
0_
0Y
0[
0`
0i
#900000
1(
0$
0#
0&
0'
1F
0E
0D
0B
0A
0n
0k
0e
0b
1_
1`
0c
0f
0l
0o
#910000
0!
0"
0=
0@
0q
0X
0r
#920000
0(
1%
0F
1C
1h
0_
0`
1i
#925000
1$
1B
1k
1l
#930000
1#
1A
1n
1o
#935000
1)
1G
1Y
1[
#940000
1(
03
1F
0>
0\
1_
1`
0]
#945000
1!
1"
1&
1=
1D
1@
1q
1e
1X
1f
1r
#950000
0$
1'
1E
0B
0k
1b
1c
0l
#960000
0(
0#
0%
0F
0C
0A
0n
0h
0_
0`
0i
0o
#975000
1$
1B
1k
1l
#980000
1(
0!
0"
1F
0@
0=
0X
0q
1_
1`
0r
#990000
1#
0&
0)
0G
0D
1A
1n
0e
0Y
0[
0f
1o
