LSD/Projeto5/Parte0/simulation/qsim/encoder.msim.vcd
$comment
	File created using the following command:
		vcd file encoder.msim.vcd -direction
$end
$date
	Fri Apr 23 00:36:36 2021
$end
$version
	ModelSim Version 10.5b
$end
$timescale
	1ps
$end

$scope module mux_16_1_vhd_vec_tst $end
$var wire 1 ! imput [15] $end
$var wire 1 " imput [14] $end
$var wire 1 # imput [13] $end
$var wire 1 $ imput [12] $end
$var wire 1 % imput [11] $end
$var wire 1 & imput [10] $end
$var wire 1 ' imput [9] $end
$var wire 1 ( imput [8] $end
$var wire 1 ) imput [7] $end
$var wire 1 * imput [6] $end
$var wire 1 + imput [5] $end
$var wire 1 , imput [4] $end
$var wire 1 - imput [3] $end
$var wire 1 . imput [2] $end
$var wire 1 / imput [1] $end
$var wire 1 0 imput [0] $end
$var wire 1 1 Muxout $end
$var wire 1 2 Sel [3] $end
$var wire 1 3 Sel [2] $end
$var wire 1 4 Sel [1] $end
$var wire 1 5 Sel [0] $end

$scope module i1 $end
$var wire 1 6 gnd $end
$var wire 1 7 vcc $end
$var wire 1 8 unknown $end
$var wire 1 9 devoe $end
$var wire 1 : devclrn $end
$var wire 1 ; devpor $end
$var wire 1 < ww_devoe $end
$var wire 1 = ww_devclrn $end
$var wire 1 > ww_devpor $end
$var wire 1 ? ww_Sel [3] $end
$var wire 1 @ ww_Sel [2] $end
$var wire 1 A ww_Sel [1] $end
$var wire 1 B ww_Sel [0] $end
$var wire 1 C ww_imput [15] $end
$var wire 1 D ww_imput [14] $end
$var wire 1 E ww_imput [13] $end
$var wire 1 F ww_imput [12] $end
$var wire 1 G ww_imput [11] $end
$var wire 1 H ww_imput [10] $end
$var wire 1 I ww_imput [9] $end
$var wire 1 J ww_imput [8] $end
$var wire 1 K ww_imput [7] $end
$var wire 1 L ww_imput [6] $end
$var wire 1 M ww_imput [5] $end
$var wire 1 N ww_imput [4] $end
$var wire 1 O ww_imput [3] $end
$var wire 1 P ww_imput [2] $end
$var wire 1 Q ww_imput [1] $end
$var wire 1 R ww_imput [0] $end
$var wire 1 S ww_Muxout $end
$var wire 1 T \Muxout~output_o\ $end
$var wire 1 U \imput[6]~input_o\ $end
$var wire 1 V \imput[4]~input_o\ $end
$var wire 1 W \Sel[0]~input_o\ $end
$var wire 1 X \Sel[1]~input_o\ $end
$var wire 1 Y \imput[7]~input_o\ $end
$var wire 1 Z \imput[5]~input_o\ $end
$var wire 1 [ \Muxout~0_combout\ $end
$var wire 1 \ \Muxout~1_combout\ $end
$var wire 1 ] \Sel[2]~input_o\ $end
$var wire 1 ^ \imput[10]~input_o\ $end
$var wire 1 _ \imput[8]~input_o\ $end
$var wire 1 ` \imput[11]~input_o\ $end
$var wire 1 a \imput[9]~input_o\ $end
$var wire 1 b \Muxout~2_combout\ $end
$var wire 1 c \Muxout~3_combout\ $end
$var wire 1 d \Sel[3]~input_o\ $end
$var wire 1 e \imput[2]~input_o\ $end
$var wire 1 f \imput[0]~input_o\ $end
$var wire 1 g \imput[3]~input_o\ $end
$var wire 1 h \imput[1]~input_o\ $end
$var wire 1 i \Muxout~4_combout\ $end
$var wire 1 j \Muxout~5_combout\ $end
$var wire 1 k \Muxout~6_combout\ $end
$var wire 1 l \imput[14]~input_o\ $end
$var wire 1 m \imput[12]~input_o\ $end
$var wire 1 n \imput[15]~input_o\ $end
$var wire 1 o \imput[13]~input_o\ $end
$var wire 1 p \Muxout~7_combout\ $end
$var wire 1 q \Muxout~8_combout\ $end
$var wire 1 r \Muxout~9_combout\ $end
$upscope $end
$upscope $end
$enddefinitions $end
#0
$dumpvars
01
06
17
x8
19
1:
1;
1<
1=
1>
0S
0T
1U
0V
1W
1X
0Y
1Z
0[
0\
1]
1^
0_
0`
1a
0b
0c
0d
0e
1f
0g
0h
0i
0j
0k
0l
1m
1n
0o
1p
1q
0r
1!
0"
0#
1$
0%
1&
1'
0(
0)
1*
1+
0,
0-
0.
0/
10
02
13
14
15
0?
1@
1A
1B
1C
0D
0E
1F
0G
1H
1I
0J
0K
1L
1M
0N
0O
0P
0Q
1R
$end
#30000
1"
1#
0$
0&
0*
0+
1,
1.
1/
04
1Q
1P
1N
0M
0L
0H
0F
1E
1D
0A
0X
1l
1o
0m
0^
0U
0Z
1V
1e
1h
1b
1i
1j
1c
#60000
0"
1$
1&
1+
0/
1%
0'
00
12
0R
0Q
1M
0I
1H
1G
1F
0D
1?
1d
0l
1m
1`
1^
0a
1Z
0h
0f
0i
1[
0b
1k
1r
0c
1\
0j
1T
1S
11
#90000
1"
0$
0&
0+
0%
10
0,
0.
1(
03
05
1R
0P
0N
0M
1J
0H
0G
0F
1D
0B
0@
0]
0W
1l
0m
0`
0^
1_
0Z
0V
0e
1f
0[
0\
1c
1j
0p
0k
0q
1k
0r
1r
0T
0S
1T
01
1S
11
#120000
0"
1&
1.
0(
13
1'
0#
1*
14
0!
1P
1L
0J
1I
1H
0E
0D
0C
1A
1@
1]
1X
0n
0l
0o
1^
1a
0_
1U
1e
0c
1[
1b
1i
1p
0r
1c
1\
0T
0S
01
#150000
1"
1(
0'
00
02
1)
1-
0R
1O
1K
1J
0I
1D
0?
0d
1l
0a
1_
1Y
1g
0f
1q
0k
1r
1T
1S
11
#180000
0"
0(
1'
12
0)
0&
0.
0*
1!
1+
1%
15
0P
1M
0L
0K
0J
1I
0H
1G
0D
1C
1B
1?
1d
1W
1n
0l
1`
0^
1a
0_
0Y
0U
1Z
0e
0[
1k
0\
#210000
1"
0'
02
1)
1&
1.
0+
0%
05
10
0-
1$
1/
1R
1Q
1P
0O
0M
1K
0I
1H
0G
1F
1D
0B
0?
0d
0W
1l
1m
0`
1^
0a
1Y
0Z
0g
1e
1h
1f
1[
0k
0r
0T
0S
01
#240000
1%
0/
1*
0!
03
04
0Q
1L
1G
0C
0A
0@
0]
0X
0n
1`
1U
0h
1\
0[
0b
0i
0p
1k
0c
0\
1r
1T
1S
11
#270000
0%
0*
1!
13
0"
0&
1+
15
00
1-
0$
1(
1#
0R
1O
1M
0L
1J
0H
0G
0F
1E
0D
1C
1B
1@
1]
1W
1n
0l
1o
0m
0`
0^
1_
0U
1Z
1g
0f
1[
0j
1p
0q
0k
0r
1q
1\
1r
0T
0S
1T
01
1S
11
#300000
1%
03
1"
0+
05
0-
1$
0#
1/
14
0)
1,
1Q
0O
1N
0M
0K
1G
1F
0E
1D
0B
1A
0@
0]
1X
0W
1l
0o
1m
1`
0Y
0Z
1V
0g
1h
0\
1c
1b
1i
0r
1j
0c
1k
0T
1r
0S
01
1T
1S
11
#330000
0%
13
0"
1+
1-
1#
0/
1)
1&
10
12
1R
0Q
1O
1M
1K
1H
0G
1E
0D
1@
1?
1d
1]
0l
1o
0`
1^
1Y
1Z
1g
0h
1f
1c
0q
0r
0T
0S
01
#360000
1/
0)
0&
02
04
0.
1Q
0P
0K
0H
0A
0?
0d
0X
0^
0Y
0e
1h
0j
0c
0[
0b
0i
0p
0k
1q
1j
1c
1\
1r
1T
1S
11
#390000
12
1.
03
00
0$
0,
0(
0@
1?
0R
1P
0N
0J
0F
0m
0_
0V
1e
0f
1d
0]
0r
1k
0j
0\
0c
0q
0k
1r
0r
0T
0S
1T
01
1S
0T
11
0S
01
#420000
0.
10
1$
1&
14
1"
0+
0-
15
1R
0P
0O
0M
1H
1F
1D
1B
1A
1X
1W
1l
1m
1^
0Z
0g
0e
1f
1p
1q
#450000
1.
0&
0"
1+
05
02
13
1(
0!
1P
1M
1J
0H
0D
0C
0B
1@
0?
0d
1]
0W
0n
0l
0^
1_
1Z
1e
1[
1b
1c
1i
1j
0q
0c
#480000
1&
12
0(
1!
00
0$
1,
1*
1'
0R
1N
1L
0J
1I
1H
0F
1C
1?
1d
1n
0m
1^
1a
0_
1U
1V
0f
1\
1c
1k
#510000
0&
02
1(
0!
10
0,
0'
03
04
1-
0/
1%
1R
0Q
1O
0N
1J
0I
0H
1G
0C
0A
0@
0?
0d
0]
0X
0n
1`
0^
0a
1_
0V
1g
0h
1f
0c
0[
0b
0i
0p
1r
1c
0\
1T
1S
11
#540000
1&
0(
1!
00
1'
13
14
0-
0*
0+
0R
0O
0M
0L
0J
1I
1H
1C
1A
1@
1]
1X
1n
1^
1a
0_
0U
0Z
0g
0f
0j
0c
1[
1b
1i
1p
0k
0r
1j
1c
0T
0S
01
#570000
0&
1(
0!
0'
04
1-
12
0.
15
1)
0P
1O
1K
1J
0I
0H
0C
1B
0A
1?
1d
0X
1W
0n
0^
0a
1_
1Y
1g
0e
1\
1q
0[
0b
0i
1k
0j
0c
0\
1r
1T
1S
11
#600000
1&
1!
1'
14
0-
02
05
10
03
1*
1+
0%
1"
0#
1R
0O
1M
1L
1I
1H
0G
0E
1D
1C
0B
1A
0@
0?
0d
0]
1X
0W
1n
1l
0o
0`
1^
1a
1U
1Z
0g
1f
1c
1j
1[
1b
1i
0k
0r
0j
1\
1k
1r
0k
0r
0T
0S
1T
01
1S
0T
11
0S
01
#630000
04
12
13
0+
1%
1#
1,
0A
1@
1?
1N
0M
1G
1E
1o
1`
0Z
1V
1d
1]
0X
0i
1r
1k
0[
0b
0p
0q
1j
0r
1T
1S
11
0T
0S
01
#660000
03
1+
0%
0#
0&
0!
0'
15
0(
1$
1B
0@
1M
0J
0I
0H
0G
1F
0E
0C
0n
0o
1m
0`
0^
0a
0_
1Z
0]
1W
0\
0j
1r
1[
0c
1\
0k
0r
1T
1S
11
0T
0S
01
#690000
13
0+
1%
1!
05
02
0,
0B
1@
0?
0N
0M
1G
1C
1n
1`
0Z
0V
0d
1]
0W
1j
1q
1r
0[
0\
0r
1T
1S
11
0T
0S
01
#720000
1+
15
1,
1#
1&
1-
00
0"
1.
0)
0R
1P
1O
1N
1M
0K
1H
1E
0D
1B
1W
0l
1o
1^
0Y
1Z
1V
1g
1e
0f
1[
0j
1p
0q
1q
1\
1r
1T
1S
11
#750000
0+
05
0#
0&
0-
10
0.
03
0%
1'
1(
0$
1R
0P
0O
0M
1J
1I
0H
0G
0F
0E
0B
0@
0]
0W
0o
0m
0`
0^
1a
1_
0Z
0g
0e
1f
0[
1c
1j
0p
0q
0r
1k
1r
0T
0S
01
1T
1S
11
#780000
1+
15
1#
00
1.
13
0'
0(
0,
1)
0*
0R
1P
0N
1M
0L
1K
0J
0I
1E
1B
1@
1]
1W
1o
0a
0_
1Y
0U
1Z
0V
1e
0f
1[
0\
0c
0j
1p
0k
0r
1q
1\
1r
0T
0S
01
1T
1S
11
#810000
0+
05
1'
1(
1,
1%
1$
0!
12
14
1N
0M
1J
1I
1G
1F
0C
0B
1A
1?
1d
1X
0W
0n
1m
1`
1a
1_
0Z
1V
0\
1c
0q
1b
1i
1k
1j
0c
0r
0T
0S
01
#840000
1+
15
0(
0,
0%
0$
0#
0.
0)
0P
0N
1M
0K
0J
0G
0F
0E
1B
1W
0o
0m
0`
0_
0Y
1Z
0V
0e
0[
1\
0b
1c
0i
0p
1q
0q
0j
0c
1r
0\
0r
1T
1S
0T
11
0S
01
#870000
05
1(
1%
1$
1#
1.
0'
1!
02
04
10
1&
1-
1"
1/
0B
0A
0?
1R
1Q
1P
1O
1J
0I
1H
1G
1F
1E
1D
1C
1n
1l
1o
1m
1`
1^
0a
1_
1g
1e
1h
1f
0d
0X
0W
0k
1j
1c
1q
#900000
0(
0%
0$
0#
0.
0!
14
00
0"
1,
1)
0R
0P
1N
1K
0J
0G
0F
0E
0D
0C
1A
1X
0n
0l
0o
0m
0`
0_
1Y
1V
0e
0f
0j
1\
0c
0q
1[
1b
1i
1p
1c
0\
1r
0r
1T
1S
0T
11
0S
01
#930000
1(
04
1"
0,
15
1'
0-
0/
03
0Q
0O
0N
1J
1I
1D
1B
0A
0@
0]
0X
1W
1l
1a
1_
0V
0g
0h
1\
1j
1q
0i
0p
0q
0j
1k
0k
1r
0r
1T
1S
0T
11
0S
01
#960000
0"
05
1-
1/
1.
0)
12
1Q
1P
1O
0K
0D
0B
1?
1d
0W
0l
0Y
1g
1e
1h
0[
0\
0b
1k
1r
1T
1S
11
#990000
1"
15
0/
1)
02
0(
14
1,
1$
1!
10
0&
1R
0Q
1N
1K
0J
0H
1F
1D
1C
1B
1A
0?
0d
1X
1W
1n
1l
1m
0^
0_
1Y
1V
0h
1f
0c
1[
1i
1p
0k
0r
1q
1j
1\
1k
1r
0T
0S
01
1T
1S
11
