LSD/Projeto2/parte2/simulation/qsim/Mux2_1Demo.msim.vcd
$comment
	File created using the following command:
		vcd file Mux2_1Demo.msim.vcd -direction
$end
$date
	Sat Mar 20 00:24:28 2021
$end
$version
	ModelSim Version 10.5b
$end
$timescale
	1ps
$end

$scope module mux4_1e_vhd_vec_tst $end
$var wire 1 ! dataIn0 $end
$var wire 1 " dataIn1 $end
$var wire 1 # dataIn2 $end
$var wire 1 $ dataIn3 $end
$var wire 1 % dataOut $end
$var wire 1 & sel [1] $end
$var wire 1 ' sel [0] $end

$scope module i1 $end
$var wire 1 ( gnd $end
$var wire 1 ) vcc $end
$var wire 1 * unknown $end
$var wire 1 + devoe $end
$var wire 1 , devclrn $end
$var wire 1 - devpor $end
$var wire 1 . ww_devoe $end
$var wire 1 / ww_devclrn $end
$var wire 1 0 ww_devpor $end
$var wire 1 1 ww_sel [1] $end
$var wire 1 2 ww_sel [0] $end
$var wire 1 3 ww_dataIn0 $end
$var wire 1 4 ww_dataIn1 $end
$var wire 1 5 ww_dataIn2 $end
$var wire 1 6 ww_dataIn3 $end
$var wire 1 7 ww_dataOut $end
$var wire 1 8 \dataOut~output_o\ $end
$var wire 1 9 \dataIn2~input_o\ $end
$var wire 1 : \sel[1]~input_o\ $end
$var wire 1 ; \dataIn1~input_o\ $end
$var wire 1 < \sel[0]~input_o\ $end
$var wire 1 = \dataIn0~input_o\ $end
$var wire 1 > \dataOut~0_combout\ $end
$var wire 1 ? \dataIn3~input_o\ $end
$var wire 1 @ \dataOut~1_combout\ $end
$upscope $end
$upscope $end
$enddefinitions $end
#0
$dumpvars
0!
0"
0#
0$
0%
0(
1)
x*
1+
1,
1-
1.
1/
10
03
04
05
06
07
08
09
0:
0;
0<
0=
0>
0?
0@
0&
0'
01
02
$end
#40000
1'
1"
1#
12
14
15
19
1;
1<
1>
1@
18
17
1%
#50000
1$
16
1?
#80000
0'
0"
0#
1&
1!
02
11
04
05
13
1=
09
0;
1:
0<
0>
0@
08
07
0%
#90000
1"
14
1;
#100000
0$
06
0?
#120000
1'
1#
12
15
19
1<
1>
1@
0@
18
17
08
1%
07
0%
#150000
1$
16
1?
1@
18
17
1%
#160000
0'
0#
0&
02
01
05
09
0:
0<
#200000
1'
1#
0$
0"
0!
12
15
06
04
03
0=
0;
0?
19
1<
0>
0@
08
07
0%
#240000
0'
0#
1!
1&
02
11
05
13
1=
09
1:
0<
#250000
1$
16
1?
#280000
1'
1#
1"
12
15
14
1;
19
1<
1@
1>
18
17
1%
#300000
0$
06
0?
0@
08
07
0%
#320000
0'
0#
0!
0&
02
01
05
03
0=
09
0:
0<
1@
0>
0@
18
17
08
1%
07
0%
#350000
1$
16
1?
#360000
1'
1#
12
15
19
1<
1>
1@
18
17
1%
#370000
1!
13
1=
#400000
0'
0#
0$
1&
02
11
05
06
0?
09
1:
0<
0>
0@
08
07
0%
#430000
0"
04
0;
#440000
1'
1#
12
15
19
1<
1>
1@
0@
18
17
08
1%
07
0%
#450000
1$
16
1?
1@
18
17
1%
#480000
0'
0#
0&
02
01
05
09
0:
0<
#500000
0$
06
0?
#520000
1'
1#
12
15
19
1<
0>
0@
08
07
0%
#550000
1$
16
1?
#560000
0'
0#
1&
0!
02
11
05
03
0=
09
1:
0<
#570000
1"
14
1;
#600000
1'
1#
0$
12
15
06
0?
19
1<
1>
1@
0@
18
17
08
1%
07
0%
#640000
0'
0#
0&
02
01
05
09
0:
0<
0>
1@
0@
18
17
08
1%
07
0%
#650000
1$
16
1?
#680000
1'
1#
1!
12
15
13
1=
19
1<
1>
1@
18
17
1%
#700000
0$
06
0?
#720000
0'
0#
1&
02
11
05
09
1:
0<
0>
0@
08
07
0%
#730000
0"
04
0;
#750000
1$
16
1?
#760000
1'
1#
0!
12
15
03
0=
19
1<
1@
1>
18
17
1%
#780000
1"
14
1;
#800000
0'
0#
1!
0$
0&
02
01
05
13
06
0?
1=
09
0:
0<
#840000
1'
1#
0!
0"
12
15
03
04
0;
0=
19
1<
0>
0@
08
07
0%
#850000
1$
16
1?
#880000
0'
0#
1&
02
11
05
09
1:
0<
#900000
0$
06
0?
#920000
1'
1#
12
15
19
1<
1>
1@
0@
18
17
08
1%
07
0%
#950000
1$
16
1?
1@
18
17
1%
#960000
0'
0#
0&
02
01
05
09
0:
0<
0>
0@
08
07
0%
