LSD/Projeto4/Parte1/simulation/qsim/FlipFlopD_Demo.msim.vcd
$comment
	File created using the following command:
		vcd file FlipFlopD_Demo.msim.vcd -direction
$end
$date
	Sun Apr 11 13:45:48 2021
$end
$version
	ModelSim Version 10.5b
$end
$timescale
	1ps
$end

$scope module latchd_vhd_vec_tst $end
$var wire 1 ! dataIn $end
$var wire 1 " dataOut $end
$var wire 1 # enable $end

$scope module i1 $end
$var wire 1 $ gnd $end
$var wire 1 % vcc $end
$var wire 1 & unknown $end
$var wire 1 ' devoe $end
$var wire 1 ( devclrn $end
$var wire 1 ) devpor $end
$var wire 1 * ww_devoe $end
$var wire 1 + ww_devclrn $end
$var wire 1 , ww_devpor $end
$var wire 1 - ww_enable $end
$var wire 1 . ww_dataIn $end
$var wire 1 / ww_dataOut $end
$var wire 1 0 \dataOut~output_o\ $end
$var wire 1 1 \dataIn~input_o\ $end
$var wire 1 2 \enable~input_o\ $end
$var wire 1 3 \dataOut$latch~combout\ $end
$upscope $end
$upscope $end
$enddefinitions $end
#0
$dumpvars
0!
x"
0#
0$
1%
x&
1'
1(
1)
1*
1+
1,
0-
0.
x/
x0
01
02
x3
$end
#30000
1!
1.
11
#60000
0!
0.
01
#90000
1!
1.
11
#120000
0!
0.
01
#130000
1#
1-
12
03
00
0/
0"
#150000
1!
1.
11
13
10
1/
1"
#180000
0!
0.
01
03
00
0/
0"
#210000
1!
1.
11
13
10
1/
1"
#240000
0!
0.
01
03
00
0/
0"
#270000
1!
1.
11
13
10
1/
1"
#300000
0!
0.
01
03
00
0/
0"
#330000
1!
1.
11
13
10
1/
1"
#360000
0!
0.
01
03
00
0/
0"
#390000
1!
1.
11
13
10
1/
1"
#420000
0!
0.
01
03
00
0/
0"
#450000
1!
1.
11
13
10
1/
1"
#480000
0!
0.
01
03
00
0/
0"
#510000
1!
1.
11
13
10
1/
1"
#540000
0!
0.
01
03
00
0/
0"
#570000
1!
1.
11
13
10
1/
1"
#600000
0!
0.
01
03
00
0/
0"
#630000
1!
1.
11
13
10
1/
1"
#660000
0!
0.
01
03
00
0/
0"
#690000
1!
1.
11
13
10
1/
1"
#720000
0!
0.
01
03
00
0/
0"
#750000
1!
1.
11
13
10
1/
1"
#780000
0!
0.
01
03
00
0/
0"
#810000
1!
1.
11
13
10
1/
1"
#840000
0!
0.
01
03
00
0/
0"
#870000
1!
1.
11
13
10
1/
1"
#900000
0!
0.
01
03
00
0/
0"
#930000
1!
1.
11
13
10
1/
1"
#960000
0!
0.
01
03
00
0/
0"
#990000
1!
1.
11
13
10
1/
1"
