LSD/Projeto2/parte4/simulation/qsim/PEnc4_2Demo.msim.vcd
$comment
	File created using the following command:
		vcd file PEnc4_2Demo.msim.vcd -direction
$end
$date
	Mon Apr 12 18:32:25 2021
$end
$version
	ModelSim Version 10.5b
$end
$timescale
	1ps
$end

$scope module penc4_2_vhd_vec_tst $end
$var wire 1 ! decodeIn [3] $end
$var wire 1 " decodeIn [2] $end
$var wire 1 # decodeIn [1] $end
$var wire 1 $ decodeIn [0] $end
$var wire 1 % encodedOut [1] $end
$var wire 1 & encodedOut [0] $end
$var wire 1 ' validOut $end

$scope module i1 $end
$var wire 1 ( gnd $end
$var wire 1 ) vcc $end
$var wire 1 * unknown $end
$var wire 1 + devoe $end
$var wire 1 , devclrn $end
$var wire 1 - devpor $end
$var wire 1 . ww_devoe $end
$var wire 1 / ww_devclrn $end
$var wire 1 0 ww_devpor $end
$var wire 1 1 ww_decodeIn [3] $end
$var wire 1 2 ww_decodeIn [2] $end
$var wire 1 3 ww_decodeIn [1] $end
$var wire 1 4 ww_decodeIn [0] $end
$var wire 1 5 ww_validOut $end
$var wire 1 6 ww_encodedOut [1] $end
$var wire 1 7 ww_encodedOut [0] $end
$var wire 1 8 \validOut~output_o\ $end
$var wire 1 9 \encodedOut[0]~output_o\ $end
$var wire 1 : \encodedOut[1]~output_o\ $end
$var wire 1 ; \decodeIn[0]~input_o\ $end
$var wire 1 < \decodeIn[1]~input_o\ $end
$var wire 1 = \decodeIn[2]~input_o\ $end
$var wire 1 > \decodeIn[3]~input_o\ $end
$var wire 1 ? \validOut~0_combout\ $end
$var wire 1 @ \comb~1_combout\ $end
$var wire 1 A \comb~0_combout\ $end
$var wire 1 B \encodedOut[0]$latch~combout\ $end
$var wire 1 C \comb~3_combout\ $end
$var wire 1 D \comb~2_combout\ $end
$var wire 1 E \encodedOut[1]$latch~combout\ $end
$upscope $end
$upscope $end
$enddefinitions $end
#0
$dumpvars
0'
0(
1)
x*
1+
1,
1-
1.
1/
10
05
08
x9
x:
0;
0<
0=
0>
0?
0@
0A
xB
0C
0D
xE
0!
0"
0#
0$
01
02
03
04
x6
x7
x%
x&
$end
#30000
1$
14
1;
1?
1A
1D
0E
0B
18
15
09
0:
1'
07
06
0&
0%
#60000
0$
1#
04
13
1<
0;
1@
0A
1B
19
17
1&
#90000
1$
14
1;
0?
0@
0D
08
05
0'
#120000
0$
0#
1"
04
03
12
1=
0<
0;
1?
1A
1C
1E
0B
18
15
09
1:
1'
07
16
0&
1%
#150000
1$
14
1;
0?
0A
0C
08
05
0'
#180000
0$
1#
04
13
1<
0;
#210000
1$
14
1;
#240000
0$
0#
0"
1!
04
03
02
11
1>
0=
0<
0;
1?
1@
1C
1B
18
15
19
1'
17
1&
#270000
1$
14
1;
0?
0@
0C
08
05
0'
#300000
0$
1#
04
13
1<
0;
#330000
1$
14
1;
#360000
0$
0#
1"
04
03
12
1=
0<
0;
#390000
1$
14
1;
#420000
0$
1#
04
13
1<
0;
#450000
1$
14
1;
#480000
0$
0#
0"
0!
04
03
02
01
0>
0=
0<
0;
#510000
1$
14
1;
1?
1A
1D
0E
0B
18
15
09
0:
1'
07
06
0&
0%
#540000
0$
1#
04
13
1<
0;
1@
0A
1B
19
17
1&
#570000
1$
14
1;
0?
0@
0D
08
05
0'
#600000
0$
0#
1"
04
03
12
1=
0<
0;
1?
1A
1C
1E
0B
18
15
09
1:
1'
07
16
0&
1%
#630000
1$
14
1;
0?
0A
0C
08
05
0'
#660000
0$
1#
04
13
1<
0;
#690000
1$
14
1;
#720000
0$
0#
0"
1!
04
03
02
11
1>
0=
0<
0;
1?
1@
1C
1B
18
15
19
1'
17
1&
#750000
1$
14
1;
0?
0@
0C
08
05
0'
#780000
0$
1#
04
13
1<
0;
#810000
1$
14
1;
#840000
0$
0#
1"
04
03
12
1=
0<
0;
#870000
1$
14
1;
#900000
0$
1#
04
13
1<
0;
#930000
1$
14
1;
#960000
0$
0#
0"
0!
04
03
02
01
0>
0=
0<
0;
#990000
1$
14
1;
1?
1A
1D
0E
0B
18
15
09
0:
1'
07
06
0&
0%
