LSD/Projeto_Final_P6/Fase2/simulation/qsim/ModoDeAcucar.msim.vcd
$comment
	File created using the following command:
		vcd file ModoDeAcucar.msim.vcd -direction
$end
$date
	Thu Jun 10 02:09:04 2021
$end
$version
	ModelSim Version 10.5b
$end
$timescale
	1ps
$end

$scope module mododeacu_vhd_vec_tst $end
$var wire 1 ! clk $end
$var wire 1 " maisAc $end
$var wire 1 # menusAc $end
$var wire 1 $ reset $end
$var wire 1 % selBar [2] $end
$var wire 1 & selBar [1] $end
$var wire 1 ' selBar [0] $end
$var wire 1 ( selModAc $end

$scope module i1 $end
$var wire 1 ) gnd $end
$var wire 1 * vcc $end
$var wire 1 + unknown $end
$var wire 1 , devoe $end
$var wire 1 - devclrn $end
$var wire 1 . devpor $end
$var wire 1 / ww_devoe $end
$var wire 1 0 ww_devclrn $end
$var wire 1 1 ww_devpor $end
$var wire 1 2 ww_clk $end
$var wire 1 3 ww_reset $end
$var wire 1 4 ww_selModAc $end
$var wire 1 5 ww_maisAc $end
$var wire 1 6 ww_menusAc $end
$var wire 1 7 ww_selBar [2] $end
$var wire 1 8 ww_selBar [1] $end
$var wire 1 9 ww_selBar [0] $end
$var wire 1 : \selBar[0]~output_o\ $end
$var wire 1 ; \selBar[1]~output_o\ $end
$var wire 1 < \selBar[2]~output_o\ $end
$var wire 1 = \clk~input_o\ $end
$var wire 1 > \selModAc~input_o\ $end
$var wire 1 ? \reset~input_o\ $end
$var wire 1 @ \s_currentState~10_combout\ $end
$var wire 1 A \menusAc~input_o\ $end
$var wire 1 B \maisAc~input_o\ $end
$var wire 1 C \s_currentState~18_combout\ $end
$var wire 1 D \s_currentState~19_combout\ $end
$var wire 1 E \s_currentState.Inicio~q\ $end
$var wire 1 F \s_currentState~16_combout\ $end
$var wire 1 G \s_currentState~17_combout\ $end
$var wire 1 H \s_currentState.Start~q\ $end
$var wire 1 I \s_currentState~13_combout\ $end
$var wire 1 J \s_currentState~20_combout\ $end
$var wire 1 K \s_currentState.fourBar~q\ $end
$var wire 1 L \s_currentState~14_combout\ $end
$var wire 1 M \s_currentState~15_combout\ $end
$var wire 1 N \s_currentState.threeBar~q\ $end
$var wire 1 O \s_currentState~11_combout\ $end
$var wire 1 P \s_currentState~12_combout\ $end
$var wire 1 Q \s_currentState.twoBar~q\ $end
$var wire 1 R \selBar~2_combout\ $end
$var wire 1 S \selBar~3_combout\ $end
$var wire 1 T \ALT_INV_selBar~2_combout\ $end
$upscope $end
$upscope $end
$enddefinitions $end
#0
$dumpvars
0!
0"
0#
0$
0(
0)
1*
x+
1,
1-
1.
1/
10
11
02
03
04
05
06
1:
0;
0<
0=
0>
0?
0@
0A
0B
0C
0D
0E
0F
0G
0H
0I
0J
0K
0L
0M
0N
0O
0P
0Q
0R
0S
1T
07
08
19
0%
0&
1'
$end
#15000
1!
12
1=
#30000
0!
02
0=
#45000
1!
12
1=
#60000
0!
1"
02
15
1B
0=
#75000
1!
12
1=
#90000
0!
02
0=
#100000
0"
05
0B
#105000
1!
12
1=
#120000
0!
02
0=
#135000
1!
12
1=
#140000
1(
14
1>
1@
#150000
0!
1$
02
13
1?
0=
0@
1D
#165000
1!
12
1=
1E
1C
#180000
0!
02
0=
#195000
1!
12
1=
#200000
0$
03
0?
1@
#210000
0!
02
0=
#225000
1!
12
1=
#240000
0!
02
0=
#255000
1!
12
1=
#270000
0!
02
0=
#280000
1"
15
1B
0C
1G
0D
#285000
1!
12
1=
0E
1H
1F
1P
0G
#300000
0!
02
0=
#315000
1!
12
1=
0H
1Q
1M
1O
1R
1S
0F
0P
0T
1;
0:
18
09
1&
0'
#320000
0"
05
0B
0M
1P
#330000
0!
1#
02
16
1A
0=
1F
0O
0P
1G
#345000
1!
12
1=
1H
0Q
0R
0S
1C
0F
1T
0G
1D
0;
1:
08
19
0&
1'
#360000
0!
02
0=
#375000
1!
12
1=
1E
0H
#390000
0!
02
0=
#405000
1!
12
1=
#420000
0!
0#
1"
02
06
15
1B
0A
0=
0C
1G
0D
#435000
1!
12
1=
0E
1H
1F
1P
0G
#450000
0!
02
0=
#465000
1!
12
1=
0H
1Q
1M
1O
1R
1S
0F
0P
0T
1;
0:
18
09
1&
0'
#480000
0!
02
0=
#495000
1!
12
1=
1N
0Q
0M
0R
1I
0O
1T
1J
1:
19
1'
#510000
0!
1#
0"
1$
02
16
05
13
1?
0B
1A
0=
1O
0I
0@
1D
0J
#525000
1!
12
1=
1E
0N
0O
0S
1C
0;
08
0&
#540000
0!
02
0=
#550000
0#
1"
0$
06
15
03
0?
1B
0A
0C
1@
1G
0D
#555000
1!
12
1=
0E
1H
1F
1P
0G
#570000
0!
02
0=
#585000
1!
12
1=
0H
1Q
1M
1O
1R
1S
0F
0P
0T
1;
0:
18
09
1&
0'
#600000
0!
02
0=
#615000
1!
12
1=
1N
0Q
0M
0R
1I
0O
1T
1J
1:
19
1'
#630000
0!
02
0=
#645000
1!
12
1=
1K
0N
0S
1R
0T
1<
17
0;
1%
0:
08
09
0&
0'
#660000
0!
02
0=
#675000
1!
12
1=
#690000
0!
02
0=
#705000
1!
12
1=
#720000
0!
1#
0"
02
16
05
0B
1A
0=
0I
1L
1M
0J
#735000
1!
12
1=
0K
1N
1O
1S
0L
0R
1T
0M
1P
0<
07
1;
0%
1:
18
19
1&
1'
#750000
0!
02
0=
#765000
1!
12
1=
0N
1Q
1F
1R
0O
0T
0P
1G
0:
09
0'
#780000
0!
02
0=
#790000
1"
15
1B
0G
1M
#795000
1!
12
1=
1N
0Q
0F
0M
0R
1I
1O
1T
1J
1:
19
1'
#810000
0!
02
0=
#820000
0#
06
0A
0O
#825000
1!
12
1=
1K
0N
0S
1R
0T
1<
17
0;
1%
0:
08
09
0&
0'
#840000
0!
02
0=
#855000
1!
12
1=
#860000
0(
04
0>
0@
0J
#870000
0!
02
0=
#885000
1!
12
1=
0K
0I
0R
1T
0<
07
0%
1:
19
1'
#900000
0!
02
0=
#915000
1!
12
1=
#930000
0!
02
0=
#940000
0"
05
0B
#945000
1!
12
1=
#960000
0!
02
0=
#975000
1!
12
1=
#990000
0!
02
0=
