LSD/Projeto3/Parte1/simulation/qsim/AdderDemo.msim.vcd
$comment
	File created using the following command:
		vcd file AdderDemo.msim.vcd -direction
$end
$date
	Mon Mar 29 18:41:27 2021
$end
$version
	ModelSim Version 10.5b
$end
$timescale
	1ps
$end

$scope module adderdemo_vhd_vec_tst $end
$var wire 1 ! LEDR [4] $end
$var wire 1 " LEDR [3] $end
$var wire 1 # LEDR [2] $end
$var wire 1 $ LEDR [1] $end
$var wire 1 % LEDR [0] $end
$var wire 1 & SW [7] $end
$var wire 1 ' SW [6] $end
$var wire 1 ( SW [5] $end
$var wire 1 ) SW [4] $end
$var wire 1 * SW [3] $end
$var wire 1 + SW [2] $end
$var wire 1 , SW [1] $end
$var wire 1 - SW [0] $end

$scope module i1 $end
$var wire 1 . gnd $end
$var wire 1 / vcc $end
$var wire 1 0 unknown $end
$var wire 1 1 devoe $end
$var wire 1 2 devclrn $end
$var wire 1 3 devpor $end
$var wire 1 4 ww_devoe $end
$var wire 1 5 ww_devclrn $end
$var wire 1 6 ww_devpor $end
$var wire 1 7 ww_LEDR [4] $end
$var wire 1 8 ww_LEDR [3] $end
$var wire 1 9 ww_LEDR [2] $end
$var wire 1 : ww_LEDR [1] $end
$var wire 1 ; ww_LEDR [0] $end
$var wire 1 < ww_SW [7] $end
$var wire 1 = ww_SW [6] $end
$var wire 1 > ww_SW [5] $end
$var wire 1 ? ww_SW [4] $end
$var wire 1 @ ww_SW [3] $end
$var wire 1 A ww_SW [2] $end
$var wire 1 B ww_SW [1] $end
$var wire 1 C ww_SW [0] $end
$var wire 1 D \LEDR[4]~output_o\ $end
$var wire 1 E \LEDR[3]~output_o\ $end
$var wire 1 F \LEDR[2]~output_o\ $end
$var wire 1 G \LEDR[1]~output_o\ $end
$var wire 1 H \LEDR[0]~output_o\ $end
$var wire 1 I \SW[7]~input_o\ $end
$var wire 1 J \SW[3]~input_o\ $end
$var wire 1 K \SW[6]~input_o\ $end
$var wire 1 L \SW[2]~input_o\ $end
$var wire 1 M \SW[0]~input_o\ $end
$var wire 1 N \SW[4]~input_o\ $end
$var wire 1 O \SW[5]~input_o\ $end
$var wire 1 P \SW[1]~input_o\ $end
$var wire 1 Q \inst|bit1|cout~0_combout\ $end
$var wire 1 R \inst|bit2|cout~0_combout\ $end
$var wire 1 S \inst|bit3|cout~0_combout\ $end
$var wire 1 T \inst|bit3|s~combout\ $end
$var wire 1 U \inst|bit2|s~0_combout\ $end
$var wire 1 V \inst|bit1|s~0_combout\ $end
$var wire 1 W \inst|bit0|s~0_combout\ $end
$var wire 1 X \inst|bit0|ALT_INV_s~0_combout\ $end
$upscope $end
$upscope $end
$enddefinitions $end
#0
$dumpvars
0.
1/
x0
11
12
13
14
15
16
0D
0E
1F
1G
0H
0I
0J
0K
1L
1M
0N
0O
0P
0Q
0R
0S
0T
1U
1V
1W
0X
0&
0'
0(
0)
0*
1+
0,
1-
07
08
19
1:
0;
0<
0=
0>
0?
0@
1A
0B
1C
0!
0"
1#
1$
0%
$end
#80000
0-
0C
0M
0V
0W
1X
0G
1H
0:
1;
0$
1%
#160000
1-
1&
1'
1(
1)
1*
0+
1C
0A
1@
1?
1>
1=
1<
1I
1K
1O
1N
1J
0L
1M
1Q
1S
1R
0U
1T
1D
17
0F
1!
09
1E
0#
18
1"
#240000
0(
0)
0?
0>
0O
0N
1W
0Q
1V
0X
0R
1U
0T
1G
0H
1:
1F
0;
1$
19
0%
0E
1#
08
0"
#320000
1(
1)
0-
0&
0'
0*
1+
1,
0C
1B
1A
0@
1?
1>
0=
0<
0I
0K
1O
1N
0J
1L
1P
0M
1Q
0S
1R
0U
1T
0D
07
0F
0!
09
1E
0#
18
1"
#400000
0(
0)
1&
1*
0+
0A
1@
0?
0>
1<
1I
0O
0N
1J
0L
0R
1U
0W
0Q
1S
1X
0U
0T
1D
1F
1H
17
19
0E
0F
1;
1#
1!
08
09
1%
0#
0"
#480000
0&
0*
1+
1-
0,
1C
0B
1A
0@
0<
0I
0J
1L
0P
1M
1W
1U
0S
0X
0D
1F
0H
07
19
0;
1#
0!
0%
#560000
1&
0-
1,
1(
1)
1'
0C
1B
1?
1>
1=
1<
1I
1K
1O
1N
1P
0M
1Q
1R
0U
1T
1S
0T
1U
1E
0F
18
09
1F
0E
1D
0#
1"
19
08
17
1#
0"
1!
#640000
0,
0'
1*
0+
0B
0A
1@
0=
0K
1J
0L
0P
0V
1T
0R
0T
1E
0G
18
0:
0E
0$
1"
08
0"
#720000
1,
1+
1-
0(
0)
1C
1B
1A
0?
0>
0O
0N
1L
1P
1M
1R
0U
1T
0F
09
1E
0#
18
1"
#800000
1)
1'
0*
0@
1?
1=
1K
1N
0J
0T
0W
1U
1X
1F
0E
1H
19
08
1;
1#
0"
1%
#880000
0'
1*
0+
0-
1(
0C
0A
1@
1>
0=
0K
1O
1J
0L
0M
1W
1T
1V
0R
0X
0T
1G
1E
0H
1:
18
0E
0;
1$
1"
08
0%
0"
#960000
1'
1+
0(
0&
1A
0>
1=
0<
0I
1K
0O
1L
0V
1R
0S
1T
1S
0T
1E
0D
0G
18
07
0:
0E
1D
0$
1"
0!
08
17
0"
1!
