LSD/Projeto8/Parte3/simulation/qsim/DrinksMachineV2.msim.vcd
$comment
	File created using the following command:
		vcd file DrinksMachineV2.msim.vcd -direction
$end
$date
	Sun May 16 18:41:33 2021
$end
$version
	ModelSim Version 10.5b
$end
$timescale
	1ps
$end

$scope module drinksfsm_vhd_vec_tst $end
$var wire 1 ! clk $end
$var wire 1 " Drink $end
$var wire 1 # M20 $end
$var wire 1 $ M50 $end
$var wire 1 % reset $end

$scope module i1 $end
$var wire 1 & gnd $end
$var wire 1 ' vcc $end
$var wire 1 ( unknown $end
$var wire 1 ) devoe $end
$var wire 1 * devclrn $end
$var wire 1 + devpor $end
$var wire 1 , ww_devoe $end
$var wire 1 - ww_devclrn $end
$var wire 1 . ww_devpor $end
$var wire 1 / ww_clk $end
$var wire 1 0 ww_reset $end
$var wire 1 1 ww_M20 $end
$var wire 1 2 ww_M50 $end
$var wire 1 3 ww_Drink $end
$var wire 1 4 \Drink~output_o\ $end
$var wire 1 5 \clk~input_o\ $end
$var wire 1 6 \M20~input_o\ $end
$var wire 1 7 \M50~input_o\ $end
$var wire 1 8 \reset~input_o\ $end
$var wire 1 9 \reg_fstate.S3~0_combout\ $end
$var wire 1 : \reg_fstate.S4~2_combout\ $end
$var wire 1 ; \reg_fstate.S0~0_combout\ $end
$var wire 1 < \reg_fstate.S0~1_combout\ $end
$var wire 1 = \fstate.S0~q\ $end
$var wire 1 > \reg_fstate.S1~0_combout\ $end
$var wire 1 ? \fstate.S1~q\ $end
$var wire 1 @ \reg_fstate.S2~0_combout\ $end
$var wire 1 A \fstate.S2~q\ $end
$var wire 1 B \reg_fstate.S3~1_combout\ $end
$var wire 1 C \reg_fstate.S3~2_combout\ $end
$var wire 1 D \fstate.S3~q\ $end
$var wire 1 E \reg_fstate.S4~0_combout\ $end
$var wire 1 F \reg_fstate.S4~1_combout\ $end
$var wire 1 G \fstate.S4~q\ $end
$var wire 1 H \reg_fstate.S5~0_combout\ $end
$var wire 1 I \reg_fstate.S5~1_combout\ $end
$var wire 1 J \fstate.S5~q\ $end
$var wire 1 K \Drink~0_combout\ $end
$upscope $end
$upscope $end
$enddefinitions $end
#0
$dumpvars
0!
0"
1#
0$
1%
0&
1'
x(
1)
1*
1+
1,
1-
1.
0/
10
11
02
03
04
05
16
07
18
09
0:
1;
0<
0=
0>
0?
0@
0A
0B
0C
0D
0E
0F
0G
0H
0I
0J
0K
$end
#10000
1!
1/
15
#20000
0!
0/
05
#30000
1!
1/
15
#40000
0!
0/
05
#50000
1!
1/
15
#60000
0!
0%
0#
0/
00
01
06
08
05
19
#70000
1!
1/
15
#80000
0!
1#
0/
11
16
05
09
1:
0;
1<
1>
#90000
1!
1/
15
1=
1?
1@
0>
#100000
0!
0/
05
#110000
1!
1/
15
0?
1A
1C
1H
0@
#120000
0!
0/
05
#130000
1!
1/
15
0A
1D
1E
0C
1F
#140000
0!
0#
0/
01
06
05
19
0:
1B
0E
0F
1C
#150000
1!
1/
15
#160000
0!
1#
0/
11
16
05
09
1:
0B
1E
1F
0C
#170000
1!
1/
15
0D
1G
0E
0H
1I
0F
#180000
0!
0/
05
#190000
1!
1/
15
0G
1J
0<
1K
0I
14
13
1"
#200000
0!
0/
05
#210000
1!
1/
15
0=
0J
1<
0K
1>
04
03
0"
#220000
0!
0#
1$
0/
01
12
17
06
05
0:
1B
1E
0>
1C
#230000
1!
1/
15
1=
1D
1H
0B
0C
1I
#240000
0!
0/
05
#250000
1!
1/
15
0D
1J
0<
1K
0H
0I
14
13
1"
#260000
0!
0/
05
#270000
1!
1/
15
0=
0J
1<
0K
1B
1C
04
03
0"
#280000
0!
0$
0/
02
07
05
19
1;
0B
0E
1F
0F
0C
0<
#290000
1!
1/
15
#300000
0!
0/
05
#310000
1!
1/
15
#320000
0!
0/
05
#330000
1!
1/
15
#340000
0!
0/
05
#350000
1!
1/
15
#360000
0!
0/
05
#370000
1!
1/
15
#380000
0!
0/
05
#390000
1!
1/
15
#400000
0!
0/
05
#410000
1!
1/
15
#420000
0!
0/
05
#430000
1!
1/
15
#440000
0!
0/
05
#450000
1!
1/
15
#460000
0!
0/
05
#470000
1!
1/
15
#480000
0!
0/
05
#490000
1!
1/
15
#500000
0!
0/
05
#510000
1!
1/
15
#520000
0!
0/
05
#530000
1!
1/
15
#540000
0!
0/
05
#550000
1!
1/
15
#560000
0!
0/
05
#570000
1!
1/
15
#580000
0!
0/
05
#590000
1!
1/
15
#600000
0!
0/
05
#610000
1!
1/
15
#620000
0!
0/
05
#630000
1!
1/
15
#640000
0!
0/
05
#650000
1!
1/
15
#660000
0!
0/
05
#670000
1!
1/
15
#680000
0!
0/
05
#690000
1!
1/
15
#700000
0!
0/
05
#710000
1!
1/
15
#720000
0!
0/
05
#730000
1!
1/
15
#740000
0!
0/
05
#750000
1!
1/
15
#760000
0!
0/
05
#770000
1!
1/
15
#780000
0!
0/
05
#790000
1!
1/
15
#800000
0!
0/
05
#810000
1!
1/
15
#820000
0!
0/
05
#830000
1!
1/
15
#840000
0!
0/
05
#850000
1!
1/
15
#860000
0!
0/
05
#870000
1!
1/
15
#880000
0!
0/
05
#890000
1!
1/
15
#900000
0!
0/
05
#910000
1!
1/
15
#920000
0!
0/
05
#930000
1!
1/
15
#940000
0!
0/
05
#950000
1!
1/
15
#960000
0!
0/
05
#970000
1!
1/
15
#980000
0!
0/
05
#990000
1!
1/
15
