LSD/Outros/Teorica/aula7/simulation/qsim/MEF.msim.vcd
$comment
	File created using the following command:
		vcd file MEF.msim.vcd -direction
$end
$date
	Mon May 10 19:13:12 2021
$end
$version
	ModelSim Version 10.5b
$end
$timescale
	1ps
$end

$scope module amor_vhd_vec_tst $end
$var wire 1 ! clk $end
$var wire 1 " reset $end
$var wire 1 # w $end
$var wire 1 $ z $end

$scope module i1 $end
$var wire 1 % gnd $end
$var wire 1 & vcc $end
$var wire 1 ' unknown $end
$var wire 1 ( devoe $end
$var wire 1 ) devclrn $end
$var wire 1 * devpor $end
$var wire 1 + ww_devoe $end
$var wire 1 , ww_devclrn $end
$var wire 1 - ww_devpor $end
$var wire 1 . ww_clk $end
$var wire 1 / ww_reset $end
$var wire 1 0 ww_w $end
$var wire 1 1 ww_z $end
$var wire 1 2 \z~output_o\ $end
$var wire 1 3 \clk~input_o\ $end
$var wire 1 4 \reset~input_o\ $end
$var wire 1 5 \w~input_o\ $end
$var wire 1 6 \S_y~7_combout\ $end
$var wire 1 7 \S_y.S0~q\ $end
$var wire 1 8 \S_y~6_combout\ $end
$var wire 1 9 \S_y.S1~q\ $end
$var wire 1 : \S_y~5_combout\ $end
$var wire 1 ; \S_y.S2~q\ $end
$upscope $end
$upscope $end
$enddefinitions $end
#0
$dumpvars
0!
1"
0#
0$
0%
1&
x'
1(
1)
1*
1+
1,
1-
0.
1/
00
01
02
03
14
05
06
07
08
09
0:
0;
$end
#15000
1!
1.
13
#30000
0!
1#
0.
10
15
03
#45000
1!
1.
13
#60000
0!
0#
0.
00
05
03
#70000
0"
0/
04
16
18
#75000
1!
1.
13
17
19
06
08
#90000
0!
1#
0.
10
15
03
16
1:
#105000
1!
1.
13
09
1;
06
0:
12
11
1$
#120000
0!
0#
0.
00
05
03
16
1:
#135000
1!
1.
13
#150000
0!
1#
0.
10
15
03
06
0:
#165000
1!
1.
13
07
0;
02
01
0$
#180000
0!
0#
0.
00
05
03
16
18
#195000
1!
1.
13
17
19
06
08
#210000
0!
1#
0.
10
15
03
16
1:
#225000
1!
1.
13
09
1;
06
0:
12
11
1$
#240000
0!
0#
0.
00
05
03
16
1:
#255000
1!
1.
13
#270000
0!
1#
0.
10
15
03
06
0:
#285000
1!
1.
13
07
0;
02
01
0$
#300000
0!
0#
0.
00
05
03
16
18
#315000
1!
1.
13
17
19
06
08
#330000
0!
1#
0.
10
15
03
16
1:
#345000
1!
1.
13
09
1;
06
0:
12
11
1$
#360000
0!
0#
0.
00
05
03
16
1:
#375000
1!
1.
13
#390000
0!
1#
0.
10
15
03
06
0:
#405000
1!
1.
13
07
0;
02
01
0$
#420000
0!
0#
0.
00
05
03
16
18
#435000
1!
1.
13
17
19
06
08
#450000
0!
1#
0.
10
15
03
16
1:
#465000
1!
1.
13
09
1;
06
0:
12
11
1$
#480000
0!
0#
0.
00
05
03
16
1:
#495000
1!
1.
13
#510000
0!
1#
0.
10
15
03
06
0:
#525000
1!
1.
13
07
0;
02
01
0$
#540000
0!
0#
0.
00
05
03
16
18
#555000
1!
1.
13
17
19
06
08
#570000
0!
1#
0.
10
15
03
16
1:
#585000
1!
1.
13
09
1;
06
0:
12
11
1$
#600000
0!
0#
0.
00
05
03
16
1:
#615000
1!
1.
13
#630000
0!
1#
0.
10
15
03
06
0:
#645000
1!
1.
13
07
0;
02
01
0$
#660000
0!
0#
0.
00
05
03
16
18
#675000
1!
1.
13
17
19
06
08
#690000
0!
1#
0.
10
15
03
16
1:
#705000
1!
1.
13
09
1;
06
0:
12
11
1$
#720000
0!
0#
0.
00
05
03
16
1:
#735000
1!
1.
13
#750000
0!
1#
0.
10
15
03
06
0:
#765000
1!
1.
13
07
0;
02
01
0$
#780000
0!
0#
0.
00
05
03
16
18
#795000
1!
1.
13
17
19
06
08
#810000
0!
1#
0.
10
15
03
16
1:
#825000
1!
1.
13
09
1;
06
0:
12
11
1$
#840000
0!
0#
0.
00
05
03
16
1:
#855000
1!
1.
13
#870000
0!
1#
0.
10
15
03
06
0:
#885000
1!
1.
13
07
0;
02
01
0$
#900000
0!
0#
0.
00
05
03
16
18
#915000
1!
1.
13
17
19
06
08
#930000
0!
1#
0.
10
15
03
16
1:
#945000
1!
1.
13
09
1;
06
0:
12
11
1$
#960000
0!
0#
0.
00
05
03
16
1:
#975000
1!
1.
13
#990000
0!
1#
0.
10
15
03
06
0:
