LSD/Projeto5/Parte2/simulation/qsim/AccN_Demo.msim.vcd
$comment
	File created using the following command:
		vcd file AccN_Demo.msim.vcd -direction
$end
$date
	Fri Apr 16 12:39:40 2021
$end
$version
	ModelSim Version 10.5b
$end
$timescale
	1ps
$end

$scope module accn_vhd_vec_tst $end
$var wire 1 ! clk $end
$var wire 1 " dataIn [7] $end
$var wire 1 # dataIn [6] $end
$var wire 1 $ dataIn [5] $end
$var wire 1 % dataIn [4] $end
$var wire 1 & dataIn [3] $end
$var wire 1 ' dataIn [2] $end
$var wire 1 ( dataIn [1] $end
$var wire 1 ) dataIn [0] $end
$var wire 1 * dataOut [7] $end
$var wire 1 + dataOut [6] $end
$var wire 1 , dataOut [5] $end
$var wire 1 - dataOut [4] $end
$var wire 1 . dataOut [3] $end
$var wire 1 / dataOut [2] $end
$var wire 1 0 dataOut [1] $end
$var wire 1 1 dataOut [0] $end
$var wire 1 2 enable $end
$var wire 1 3 reset $end

$scope module i1 $end
$var wire 1 4 gnd $end
$var wire 1 5 vcc $end
$var wire 1 6 unknown $end
$var wire 1 7 devoe $end
$var wire 1 8 devclrn $end
$var wire 1 9 devpor $end
$var wire 1 : ww_devoe $end
$var wire 1 ; ww_devclrn $end
$var wire 1 < ww_devpor $end
$var wire 1 = ww_dataIn [7] $end
$var wire 1 > ww_dataIn [6] $end
$var wire 1 ? ww_dataIn [5] $end
$var wire 1 @ ww_dataIn [4] $end
$var wire 1 A ww_dataIn [3] $end
$var wire 1 B ww_dataIn [2] $end
$var wire 1 C ww_dataIn [1] $end
$var wire 1 D ww_dataIn [0] $end
$var wire 1 E ww_reset $end
$var wire 1 F ww_enable $end
$var wire 1 G ww_clk $end
$var wire 1 H ww_dataOut [7] $end
$var wire 1 I ww_dataOut [6] $end
$var wire 1 J ww_dataOut [5] $end
$var wire 1 K ww_dataOut [4] $end
$var wire 1 L ww_dataOut [3] $end
$var wire 1 M ww_dataOut [2] $end
$var wire 1 N ww_dataOut [1] $end
$var wire 1 O ww_dataOut [0] $end
$var wire 1 P \dataOut[0]~output_o\ $end
$var wire 1 Q \dataOut[1]~output_o\ $end
$var wire 1 R \dataOut[2]~output_o\ $end
$var wire 1 S \dataOut[3]~output_o\ $end
$var wire 1 T \dataOut[4]~output_o\ $end
$var wire 1 U \dataOut[5]~output_o\ $end
$var wire 1 V \dataOut[6]~output_o\ $end
$var wire 1 W \dataOut[7]~output_o\ $end
$var wire 1 X \clk~input_o\ $end
$var wire 1 Y \dataIn[0]~input_o\ $end
$var wire 1 Z \regN|dataOut[0]~8_combout\ $end
$var wire 1 [ \reset~input_o\ $end
$var wire 1 \ \enable~input_o\ $end
$var wire 1 ] \regN|dataOut[0]~10_combout\ $end
$var wire 1 ^ \dataIn[1]~input_o\ $end
$var wire 1 _ \regN|dataOut[0]~9\ $end
$var wire 1 ` \regN|dataOut[1]~11_combout\ $end
$var wire 1 a \dataIn[2]~input_o\ $end
$var wire 1 b \regN|dataOut[1]~12\ $end
$var wire 1 c \regN|dataOut[2]~13_combout\ $end
$var wire 1 d \dataIn[3]~input_o\ $end
$var wire 1 e \regN|dataOut[2]~14\ $end
$var wire 1 f \regN|dataOut[3]~15_combout\ $end
$var wire 1 g \dataIn[4]~input_o\ $end
$var wire 1 h \regN|dataOut[3]~16\ $end
$var wire 1 i \regN|dataOut[4]~17_combout\ $end
$var wire 1 j \dataIn[5]~input_o\ $end
$var wire 1 k \regN|dataOut[4]~18\ $end
$var wire 1 l \regN|dataOut[5]~19_combout\ $end
$var wire 1 m \dataIn[6]~input_o\ $end
$var wire 1 n \regN|dataOut[5]~20\ $end
$var wire 1 o \regN|dataOut[6]~21_combout\ $end
$var wire 1 p \dataIn[7]~input_o\ $end
$var wire 1 q \regN|dataOut[6]~22\ $end
$var wire 1 r \regN|dataOut[7]~23_combout\ $end
$var wire 1 s \regN|dataOut\ [7] $end
$var wire 1 t \regN|dataOut\ [6] $end
$var wire 1 u \regN|dataOut\ [5] $end
$var wire 1 v \regN|dataOut\ [4] $end
$var wire 1 w \regN|dataOut\ [3] $end
$var wire 1 x \regN|dataOut\ [2] $end
$var wire 1 y \regN|dataOut\ [1] $end
$var wire 1 z \regN|dataOut\ [0] $end
$upscope $end
$upscope $end
$enddefinitions $end
#0
$dumpvars
0!
12
13
04
15
x6
17
18
19
1:
1;
1<
1E
1F
0G
0P
0Q
0R
0S
0T
0U
0V
0W
0X
0Y
0Z
1[
1\
1]
1^
0_
1`
1a
1b
1c
0d
0e
0f
0g
1h
0i
0j
0k
0l
0m
1n
0o
0p
0q
0r
0"
0#
0$
0%
0&
1'
1(
0)
0=
0>
0?
0@
0A
1B
1C
0D
0H
0I
0J
0K
0L
0M
0N
0O
0s
0t
0u
0v
0w
0x
0y
0z
0*
0+
0,
0-
0.
0/
00
01
$end
#10000
1!
1G
1X
#20000
0!
0G
0X
#30000
1!
1G
1X
#40000
0!
0G
0X
#50000
1!
1G
1X
#60000
0!
0G
0X
#70000
1!
03
1G
0E
0[
1X
1y
1x
0c
1e
0`
0b
1c
1f
1R
1Q
1M
1N
10
1/
#80000
0!
0G
0X
#90000
1!
1G
1X
0y
1w
0f
0h
1`
1b
0c
1i
1S
0Q
1L
0N
00
1.
#100000
0!
0G
0X
#110000
1!
1G
1X
1y
0x
0w
1v
0i
1k
1f
1h
1c
0e
0`
0b
0c
1e
0f
1i
0k
1l
1T
0S
0R
1Q
0l
1f
1K
0L
0M
1N
10
0/
0.
1-
#120000
0!
0G
0X
#130000
1!
1G
1X
0y
1w
0f
0h
1`
1b
1c
0e
0i
1k
1S
0Q
1l
1f
1h
1L
0N
00
1.
1i
0k
0l
#140000
0!
0G
0X
#150000
1!
1G
1X
1y
1x
0c
1e
0`
0b
1c
0f
0h
1R
1Q
0i
1k
1M
1N
10
1/
1l
#160000
0!
0G
0X
#170000
1!
1G
1X
0y
0w
0v
1u
0l
0n
1i
0k
1f
1h
1`
1b
0c
0i
1l
1n
1o
1U
0T
0S
0Q
0o
1J
0K
0L
0N
00
0.
0-
1,
#180000
0!
0G
0X
#190000
1!
1G
1X
1y
0x
1w
0f
0h
1c
0e
0`
0b
0c
1e
1f
1h
1i
1S
0R
1Q
0i
0f
0h
1L
0M
1N
10
0/
1.
1i
#200000
0!
0G
0X
#210000
1!
1G
1X
0y
0w
1v
0i
1k
1f
1h
1`
1b
1c
0e
1i
0k
0l
0n
1T
0S
0Q
1o
1l
1n
0f
1K
0L
0N
00
0.
1-
0o
#220000
0!
0G
0X
#230000
1!
1G
1X
1y
1x
0c
1e
0`
0b
1c
1f
1R
1Q
1M
1N
10
1/
#240000
0!
0G
0X
#250000
1!
1G
1X
0y
1w
0f
0h
1`
1b
0c
0i
1k
1S
0Q
0l
0n
1L
0N
00
1.
1o
#260000
0!
0G
0X
#270000
1!
1G
1X
1y
0x
0w
0v
0u
1t
0o
1q
1l
1n
1i
0k
1f
1h
1c
0e
0`
0b
0c
1e
0f
0i
0l
1o
0q
1r
1V
0U
0T
0S
0R
1Q
0r
1f
1I
0J
0K
0L
0M
1N
10
0/
0.
0-
0,
1+
#280000
0!
0G
0X
#290000
1!
1G
1X
0y
1w
0f
0h
1`
1b
1c
0e
1i
1S
0Q
1f
1h
1L
0N
00
1.
0i
#300000
0!
0G
0X
#310000
1!
1G
1X
1y
1x
0c
1e
0`
0b
1c
0f
0h
1R
1Q
1i
1M
1N
10
1/
#320000
0!
0G
0X
#330000
1!
1G
1X
0y
0w
1v
0i
1k
1f
1h
1`
1b
0c
1i
0k
1l
1T
0S
0Q
0l
1K
0L
0N
00
0.
1-
#340000
0!
0G
0X
#350000
1!
1G
1X
1y
0x
1w
0f
0h
1c
0e
0`
0b
0c
1e
1f
1h
0i
1k
1S
0R
1Q
1l
1i
0k
0f
0h
1L
0M
1N
10
0/
1.
0i
1k
0l
1l
#360000
0!
0G
0X
#370000
1!
1G
1X
0y
0w
0v
1u
0l
0n
1i
0k
1f
1h
1`
1b
1c
0e
0i
1l
1n
0o
1q
1U
0T
0S
0Q
1r
1o
0q
0f
1J
0K
0L
0N
00
0.
0-
1,
0r
#380000
0!
0G
0X
#390000
1!
1G
1X
1y
1x
0c
1e
0`
0b
1c
1f
1R
1Q
1M
1N
10
1/
#400000
0!
0G
0X
#410000
1!
1G
1X
0y
1w
0f
0h
1`
1b
0c
1i
1S
0Q
1L
0N
00
1.
#420000
0!
0G
0X
#430000
1!
1G
1X
1y
0x
0w
1v
0i
1k
1f
1h
1c
0e
0`
0b
0c
1e
0f
1i
0k
0l
0n
1T
0S
0R
1Q
0o
1q
1l
1n
1f
1K
0L
0M
1N
10
0/
0.
1-
1o
0q
1r
0r
#440000
0!
0G
0X
#450000
1!
1G
1X
0y
1w
0f
0h
1`
1b
1c
0e
0i
1k
1S
0Q
0l
0n
1f
1h
1L
0N
00
1.
1i
0k
0o
1q
1r
1l
1n
1o
0q
0r
#460000
0!
0G
0X
#470000
1!
1G
1X
1y
1x
0c
1e
0`
0b
1c
0f
0h
1R
1Q
0i
1k
1M
1N
10
1/
0l
0n
0o
1q
1r
#480000
0!
13
0G
1E
1[
0X
#490000
1!
1G
1X
0y
0x
0w
0v
0u
0t
1o
0q
1l
1n
1i
0k
1f
1h
0c
1`
1b
1c
0e
0i
0l
0o
0r
0V
0U
0T
0S
0R
0Q
0f
0I
0J
0K
0L
0M
0N
00
0/
0.
0-
0,
0+
#500000
0!
0G
0X
#510000
1!
1G
1X
#520000
0!
0G
0X
#530000
1!
1G
1X
#540000
0!
0G
0X
#550000
1!
03
1G
0E
0[
1X
1y
1x
0c
1e
0`
0b
1c
1f
1R
1Q
1M
1N
10
1/
#560000
0!
0G
0X
#570000
1!
1G
1X
0y
1w
0f
0h
1`
1b
0c
1i
1S
0Q
1L
0N
00
1.
#580000
0!
0G
0X
#590000
1!
1G
1X
1y
0x
0w
1v
0i
1k
1f
1h
1c
0e
0`
0b
0c
1e
0f
1i
0k
1l
1T
0S
0R
1Q
0l
1f
1K
0L
0M
1N
10
0/
0.
1-
#600000
0!
0G
0X
#610000
1!
1G
1X
0y
1w
0f
0h
1`
1b
1c
0e
0i
1k
1S
0Q
1l
1f
1h
1L
0N
00
1.
1i
0k
0l
#620000
0!
0G
0X
#630000
1!
1G
1X
1y
1x
0c
1e
0`
0b
1c
0f
0h
1R
1Q
0i
1k
1M
1N
10
1/
1l
#640000
0!
0G
0X
#650000
1!
1G
1X
0y
0w
0v
1u
0l
0n
1i
0k
1f
1h
1`
1b
0c
0i
1l
1n
1o
1U
0T
0S
0Q
0o
1J
0K
0L
0N
00
0.
0-
1,
#660000
0!
0G
0X
#670000
1!
1G
1X
1y
0x
1w
0f
0h
1c
0e
0`
0b
0c
1e
1f
1h
1i
1S
0R
1Q
0i
0f
0h
1L
0M
1N
10
0/
1.
1i
#680000
0!
0G
0X
#690000
1!
1G
1X
0y
0w
1v
0i
1k
1f
1h
1`
1b
1c
0e
1i
0k
0l
0n
1T
0S
0Q
1o
1l
1n
0f
1K
0L
0N
00
0.
1-
0o
#700000
0!
0G
0X
#710000
1!
1G
1X
1y
1x
0c
1e
0`
0b
1c
1f
1R
1Q
1M
1N
10
1/
#720000
0!
0G
0X
#730000
1!
1G
1X
0y
1w
0f
0h
1`
1b
0c
0i
1k
1S
0Q
0l
0n
1L
0N
00
1.
1o
#740000
0!
0G
0X
#750000
1!
1G
1X
1y
0x
0w
0v
0u
1t
0o
1q
1l
1n
1i
0k
1f
1h
1c
0e
0`
0b
0c
1e
0f
0i
0l
1o
0q
1r
1V
0U
0T
0S
0R
1Q
0r
1f
1I
0J
0K
0L
0M
1N
10
0/
0.
0-
0,
1+
#760000
0!
0G
0X
#770000
1!
1G
1X
0y
1w
0f
0h
1`
1b
1c
0e
1i
1S
0Q
1f
1h
1L
0N
00
1.
0i
#780000
0!
0G
0X
#790000
1!
1G
1X
1y
1x
0c
1e
0`
0b
1c
0f
0h
1R
1Q
1i
1M
1N
10
1/
#800000
0!
0G
0X
#810000
1!
1G
1X
0y
0w
1v
0i
1k
1f
1h
1`
1b
0c
1i
0k
1l
1T
0S
0Q
0l
1K
0L
0N
00
0.
1-
#820000
0!
0G
0X
#830000
1!
1G
1X
1y
0x
1w
0f
0h
1c
0e
0`
0b
0c
1e
1f
1h
0i
1k
1S
0R
1Q
1l
1i
0k
0f
0h
1L
0M
1N
10
0/
1.
0i
1k
0l
1l
#840000
0!
0G
0X
#850000
1!
1G
1X
0y
0w
0v
1u
0l
0n
1i
0k
1f
1h
1`
1b
1c
0e
0i
1l
1n
0o
1q
1U
0T
0S
0Q
1r
1o
0q
0f
1J
0K
0L
0N
00
0.
0-
1,
0r
#860000
0!
0G
0X
#870000
1!
1G
1X
1y
1x
0c
1e
0`
0b
1c
1f
1R
1Q
1M
1N
10
1/
#880000
0!
0G
0X
#890000
1!
1G
1X
0y
1w
0f
0h
1`
1b
0c
1i
1S
0Q
1L
0N
00
1.
#900000
0!
0G
0X
#910000
1!
1G
1X
1y
0x
0w
1v
0i
1k
1f
1h
1c
0e
0`
0b
0c
1e
0f
1i
0k
0l
0n
1T
0S
0R
1Q
0o
1q
1l
1n
1f
1K
0L
0M
1N
10
0/
0.
1-
1o
0q
1r
0r
#920000
0!
0G
0X
#930000
1!
1G
1X
0y
1w
0f
0h
1`
1b
1c
0e
0i
1k
1S
0Q
0l
0n
1f
1h
1L
0N
00
1.
1i
0k
0o
1q
1r
1l
1n
1o
0q
0r
#940000
0!
0G
0X
#950000
1!
1G
1X
1y
1x
0c
1e
0`
0b
1c
0f
0h
1R
1Q
0i
1k
1M
1N
10
1/
0l
0n
0o
1q
1r
#960000
0!
0G
0X
#970000
1!
1G
1X
0y
0w
0v
0u
0t
1s
0r
1o
0q
1l
1n
1i
0k
1f
1h
1`
1b
0c
0i
0l
0o
1r
1W
0V
0U
0T
0S
0Q
1H
0I
0J
0K
0L
0N
00
0.
0-
0,
0+
1*
#980000
0!
0G
0X
#990000
1!
1G
1X
1y
0x
1w
0f
0h
1c
0e
0`
0b
0c
1e
1f
1h
1i
1S
0R
1Q
0i
0f
0h
1L
0M
1N
10
0/
1.
1i
